>\:\[
\:-\(
\:-\[
\:\(
\:-c
\:-C
\:-<
\:<
\:\[
\:\{
\:-\|\|
\:\@
>\:\(
\:\'-\(
\:\'\(
QQ
TAT
D\:<
D\:
D8
D;
D=
DX
v\.v
V\.V
D-\'\:
D-\:
>\:\\
>\:\/
\:-\/
\:-\.
\:\/
\:\\
=\/
=\\
\:L
=L
\:S
\:s
>\.<
\:\|
\:-\|
\:\$
\:-X
\:-x
\:X
\:x
\:-\#
\:\#
\:-\#+
\:\#+
<\:-\|
<\/3
=o=
=0=
=O=
=\.=
-\.-
==\|+
>_<\|*
><
\:0
\:o
\:O