\:-\)
\:\)
\:o\)
\:0\)
\:\]
\:3
\:c\)
\:C\)
\:>
=\)
8\)
=\]
\:\}
\:\^\)
\:-D
\:D
8-D
8D
x-D
X-D
xD
XD
=-D
=D
=-3
=3
B\^D
\:-\)\)
\:\'-\)
\:\'\)
;\)
;-\)
\*-\)
\*\)
;-\]
;\]
;D
;\^\)
\:-,
>\:P
\:-P
\:P
X-P
x-p
xp
XP
\:-p
\:p
=p
\:-b
\:b
\\o\/
\\0\/
\*\\o\/\*
\*\\0\/\*
<3
>\:\)
>;\)
>\:-\)
\^_\^
\^\^
\^-\^
\^6\^
\^0\^
\^o\^
\^O\^