@relation train

@attribute First_person_pronouns numeric
@attribute Second_person_pronouns numeric
@attribute Third_person_pronouns numeric
@attribute Coordinating_conjunctions numeric
@attribute Past-tense_verbs numeric
@attribute Future-tense_verbs numeric
@attribute Commas numeric
@attribute Colons_and_semi-colons numeric
@attribute Dashes numeric
@attribute Parentheses numeric
@attribute Ellipses numeric
@attribute Common_nouns numeric
@attribute Proper_nouns numeric
@attribute Adverbs numeric
@attribute wh-words numeric
@attribute Slang numeric
@attribute Words_all_in_upper_case numeric
@attribute Positive_Emoticons numeric
@attribute Negative_Emoticons numeric
@attribute Sentiment_score numeric
@attribute Average_length_of_sentences numeric
@attribute Average_length_of_tokens numeric
@attribute Number_of_sentences numeric
@attribute class {0, 4}
@data
2, 0, 0, 0, 0, 0, 1, 0, 0, 0, 0, 9, 0, 1, 0, 0, 0, 0, 0, 2, 9.33333333333, 7.17391304348, 3, 0
0, 0, 1, 0, 0, 0, 0, 0, 0, 0, 0, 2, 0, 1, 0, 0, 0, 0, 0, 0, 5.5, 8.11111111111, 2, 0
0, 0, 1, 0, 0, 0, 0, 0, 0, 0, 0, 3, 0, 1, 0, 0, 0, 0, 0, 0, 5.0, 9.0, 1, 0
2, 1, 0, 0, 0, 1, 0, 0, 0, 0, 0, 5, 0, 1, 1, 0, 0, 0, 0, 0, 11.0, 6.80952380952, 2, 0
1, 0, 0, 0, 0, 0, 0, 0, 0, 0, 0, 5, 1, 1, 0, 0, 0, 0, 0, -3, 6.5, 7.90909090909, 2, 0
1, 1, 2, 1, 2, 0, 0, 0, 0, 0, 0, 4, 0, 1, 0, 0, 0, 0, 0, -2, 5.33333333333, 7.53846153846, 3, 0
2, 0, 0, 1, 0, 0, 0, 0, 0, 0, 0, 3, 0, 0, 0, 0, 0, 0, 0, -3, 12.0, 7.18181818182, 1, 0
4, 0, 0, 1, 1, 0, 0, 0, 0, 0, 0, 4, 0, 3, 1, 0, 0, 0, 0, -1, 28.0, 6.76, 1, 0
1, 0, 0, 0, 0, 0, 0, 0, 0, 0, 0, 1, 0, 0, 0, 0, 0, 0, 0, -2, 4.0, 20.0, 1, 0
0, 0, 0, 0, 0, 0, 0, 0, 0, 0, 0, 2, 0, 0, 0, 0, 0, 0, 0, 1, 9.0, 7.125, 1, 0
2, 0, 1, 1, 0, 0, 1, 0, 0, 0, 0, 6, 0, 2, 0, 0, 0, 0, 0, -2, 14.0, 7.0, 2, 0
0, 0, 0, 0, 0, 0, 2, 0, 0, 0, 0, 1, 1, 3, 0, 0, 1, 0, 0, 0, 11.0, 8.125, 1, 0
1, 0, 2, 0, 0, 1, 0, 0, 0, 0, 0, 3, 1, 3, 0, 1, 2, 0, 0, 10, 6.25, 6.33333333333, 4, 0
1, 0, 2, 0, 0, 0, 0, 0, 0, 0, 0, 6, 0, 1, 0, 0, 0, 0, 0, 0, 14.0, 7.46153846154, 1, 0
0, 0, 1, 0, 2, 0, 1, 1, 0, 0, 0, 9, 0, 1, 0, 0, 0, 0, 0, 0, 10.5, 9.41176470588, 2, 0
0, 1, 0, 1, 1, 0, 1, 0, 0, 0, 0, 4, 0, 2, 0, 0, 0, 0, 0, -1, 22.0, 7.52380952381, 1, 0
0, 0, 0, 0, 0, 0, 0, 2, 2, 0, 0, 2, 0, 2, 0, 0, 0, 0, 0, -1, 8.0, 7.83333333333, 1, 0
0, 0, 0, 1, 0, 0, 0, 1, 0, 0, 1, 0, 3, 0, 0, 0, 0, 0, 0, 0, 6.0, 6.75, 1, 0
1, 1, 0, 0, 0, 0, 0, 2, 1, 1, 0, 7, 0, 0, 0, 0, 2, 1, 0, 3, 14.0, 8.41666666667, 1, 0
1, 0, 1, 0, 0, 1, 0, 1, 0, 0, 1, 4, 0, 0, 0, 0, 0, 0, 0, -5, 19.0, 7.88888888889, 1, 0
4, 0, 0, 1, 0, 0, 0, 0, 0, 0, 1, 4, 0, 0, 0, 0, 0, 0, 0, -3, 8.5, 7.5625, 2, 0
2, 0, 0, 0, 2, 0, 2, 0, 0, 0, 0, 8, 0, 0, 0, 0, 0, 0, 0, 0, 18.0, 8.125, 1, 0
1, 1, 1, 0, 0, 0, 0, 0, 0, 0, 0, 5, 0, 3, 0, 0, 0, 0, 0, 3, 22.0, 7.59090909091, 1, 0
0, 0, 0, 1, 0, 0, 0, 0, 0, 0, 0, 2, 0, 0, 0, 0, 0, 0, 0, 0, 8.0, 8.375, 1, 0
3, 0, 1, 0, 0, 0, 0, 0, 0, 0, 0, 7, 1, 0, 0, 0, 0, 0, 0, 0, 6.0, 6.8, 3, 0
2, 0, 0, 1, 0, 0, 0, 0, 0, 0, 0, 8, 0, 1, 0, 0, 0, 0, 0, -2, 24.0, 6.45833333333, 1, 0
1, 1, 0, 1, 0, 0, 0, 0, 0, 0, 0, 7, 0, 1, 0, 0, 0, 0, 0, 6, 10.5, 7.21052631579, 2, 0
0, 0, 1, 0, 0, 0, 0, 0, 0, 0, 0, 3, 0, 1, 0, 0, 0, 0, 0, -1, 5.0, 7.22222222222, 2, 0
1, 0, 0, 1, 0, 0, 0, 0, 0, 0, 0, 7, 0, 0, 0, 0, 0, 0, 0, -3, 16.0, 6.4375, 1, 0
0, 0, 1, 1, 0, 0, 1, 0, 0, 0, 0, 6, 1, 3, 0, 1, 0, 0, 0, 3, 13.0, 7.45833333333, 2, 0
2, 0, 0, 0, 0, 0, 0, 0, 0, 0, 0, 4, 0, 0, 0, 0, 0, 0, 0, -1, 8.0, 6.5, 1, 0
0, 0, 0, 0, 0, 0, 0, 0, 0, 0, 0, 1, 0, 0, 0, 0, 0, 0, 0, -1, 4.0, 6.0, 1, 0
0, 0, 2, 0, 0, 0, 1, 0, 0, 0, 0, 6, 0, 0, 0, 1, 0, 0, 0, 4, 5.0, 8.0, 3, 0
0, 0, 0, 0, 0, 0, 0, 0, 0, 0, 0, 6, 0, 0, 0, 1, 0, 0, 0, 0, 8.5, 6.53333333333, 2, 0
0, 0, 1, 0, 0, 0, 0, 0, 0, 0, 0, 0, 0, 1, 0, 0, 0, 0, 0, 1, 6.0, 6.66666666667, 1, 0
0, 0, 1, 0, 0, 0, 0, 0, 0, 0, 0, 5, 0, 0, 0, 0, 0, 0, 0, 2, 15.0, 7.4, 1, 0
1, 0, 0, 0, 0, 0, 1, 0, 0, 0, 0, 4, 1, 2, 0, 0, 0, 0, 0, 0, 10.5, 7.72222222222, 2, 0
2, 0, 0, 0, 0, 0, 0, 0, 0, 0, 0, 6, 1, 3, 0, 1, 0, 0, 0, 1, 9.0, 6.82352941176, 2, 0
1, 2, 1, 1, 1, 0, 0, 0, 0, 0, 1, 2, 0, 3, 1, 0, 0, 0, 0, -6, 7.25, 7.46153846154, 4, 0
1, 0, 0, 0, 0, 0, 0, 0, 0, 0, 0, 1, 0, 0, 0, 0, 0, 0, 0, 2, 3.5, 7.75, 2, 0
0, 0, 0, 0, 0, 0, 0, 0, 0, 0, 0, 2, 2, 0, 0, 0, 0, 0, 0, 0, 7.0, 9.57142857143, 1, 0
2, 0, 1, 1, 0, 0, 0, 0, 0, 0, 0, 7, 0, 2, 0, 0, 0, 0, 0, 2, 19.0, 7.77777777778, 1, 0
1, 0, 2, 1, 0, 0, 0, 0, 0, 0, 0, 2, 3, 3, 1, 1, 0, 0, 0, 3, 13.0, 6.91666666667, 2, 0
1, 0, 1, 0, 2, 1, 0, 0, 0, 0, 0, 3, 0, 2, 1, 0, 0, 0, 0, 0, 11.5, 7.19047619048, 2, 0
3, 0, 0, 1, 2, 0, 0, 2, 0, 0, 2, 7, 0, 0, 1, 0, 0, 0, 0, -3, 7.33333333333, 6.85, 3, 0
1, 0, 1, 0, 1, 0, 0, 0, 0, 0, 0, 3, 0, 0, 0, 0, 0, 0, 0, 2, 11.0, 7.72727272727, 1, 0
2, 0, 1, 0, 0, 1, 0, 1, 1, 0, 1, 7, 0, 1, 0, 0, 0, 0, 0, 0, 8.5, 6.5, 2, 0
2, 0, 0, 0, 1, 0, 0, 1, 2, 0, 0, 5, 0, 2, 0, 0, 0, 0, 0, 0, 10.0, 8.4375, 2, 0
0, 0, 0, 1, 0, 0, 0, 0, 0, 0, 0, 1, 0, 2, 0, 1, 0, 0, 0, 1, 8.0, 8.85714285714, 1, 0
1, 0, 0, 1, 0, 0, 1, 0, 0, 0, 0, 4, 0, 3, 0, 0, 0, 0, 0, -2, 16.0, 7.21428571429, 1, 0
1, 0, 0, 0, 0, 0, 0, 0, 0, 0, 0, 2, 0, 1, 0, 2, 0, 0, 0, -1, 6.0, 6.33333333333, 1, 0
5, 0, 2, 1, 1, 0, 0, 0, 0, 0, 0, 2, 0, 4, 0, 0, 0, 0, 0, -6, 8.5, 7.10714285714, 4, 0
1, 1, 0, 0, 1, 0, 0, 0, 0, 0, 0, 3, 0, 1, 0, 2, 0, 0, 0, 2, 8.0, 7.875, 1, 0
0, 0, 0, 0, 0, 0, 0, 0, 0, 0, 0, 8, 0, 0, 0, 0, 0, 0, 0, 0, 10.0, 7.6, 1, 0
0, 2, 0, 0, 1, 0, 0, 0, 0, 0, 0, 11, 0, 0, 0, 0, 0, 0, 0, 8, 20.0, 7.94444444444, 1, 0
1, 1, 1, 1, 0, 0, 0, 0, 0, 0, 0, 0, 0, 0, 0, 0, 0, 0, 0, -2, 8.0, 7.66666666667, 1, 0
0, 0, 0, 0, 0, 0, 0, 0, 0, 0, 0, 2, 0, 1, 0, 0, 0, 0, 0, 1, 8.0, 6.75, 1, 0
0, 0, 0, 0, 0, 0, 0, 1, 1, 0, 1, 2, 0, 0, 0, 0, 0, 0, 0, 4, 2.5, 8.75, 2, 0
1, 0, 0, 1, 0, 0, 0, 0, 0, 0, 0, 1, 0, 2, 1, 0, 0, 0, 0, -3, 11.0, 6.2, 1, 0
1, 1, 0, 0, 0, 1, 0, 0, 0, 0, 0, 2, 1, 1, 0, 0, 1, 0, 0, -2, 6.0, 6.9, 2, 0
2, 0, 0, 0, 0, 0, 0, 0, 0, 0, 1, 4, 0, 2, 0, 0, 0, 0, 0, 1, 10.0, 8.33333333333, 2, 0
2, 0, 0, 0, 0, 1, 0, 0, 0, 0, 0, 3, 0, 0, 0, 0, 0, 0, 0, 3, 6.0, 7.09090909091, 2, 0
2, 3, 0, 0, 1, 0, 0, 0, 0, 0, 0, 6, 0, 1, 1, 0, 0, 0, 0, -2, 9.66666666667, 7.44, 3, 0
0, 0, 0, 1, 0, 0, 0, 1, 0, 0, 2, 5, 0, 1, 0, 0, 0, 0, 0, 0, 6.33333333333, 6.52941176471, 3, 0
4, 0, 1, 1, 2, 0, 0, 1, 0, 0, 1, 6, 0, 0, 1, 0, 0, 0, 0, -5, 7.0, 7.76, 4, 0
2, 0, 0, 2, 2, 0, 1, 0, 0, 0, 0, 4, 0, 4, 0, 0, 0, 0, 0, -1, 12.0, 7.47619047619, 2, 0
1, 0, 1, 0, 0, 0, 1, 0, 0, 0, 0, 3, 2, 2, 0, 0, 0, 0, 0, 0, 7.0, 8.09090909091, 2, 0
0, 0, 0, 0, 0, 0, 0, 1, 0, 0, 1, 3, 0, 1, 0, 0, 0, 0, 0, 8, 3.66666666667, 7.0, 3, 0
0, 0, 0, 0, 0, 0, 2, 1, 0, 0, 1, 2, 1, 2, 0, 0, 0, 0, 0, 0, 9.0, 6.66666666667, 1, 0
2, 0, 0, 0, 0, 0, 0, 0, 0, 0, 0, 2, 0, 1, 0, 0, 0, 0, 0, -3, 9.0, 7.11111111111, 1, 0
1, 0, 1, 0, 0, 0, 0, 1, 0, 0, 0, 4, 0, 0, 0, 0, 0, 0, 0, 0, 6.0, 7.1, 2, 0
1, 0, 0, 1, 0, 0, 0, 0, 0, 0, 0, 3, 0, 0, 0, 0, 0, 0, 0, -3, 4.0, 7.33333333333, 3, 0
1, 0, 0, 0, 0, 0, 0, 0, 0, 0, 0, 1, 0, 0, 0, 0, 0, 0, 0, 1, 5.0, 7.5, 1, 0
1, 0, 0, 0, 0, 0, 0, 0, 0, 0, 0, 3, 0, 0, 0, 0, 0, 0, 0, 0, 4.0, 8.33333333333, 1, 0
2, 0, 0, 0, 0, 0, 0, 0, 0, 0, 0, 5, 0, 0, 0, 0, 0, 0, 0, 3, 6.5, 7.72727272727, 2, 0
2, 0, 0, 1, 0, 0, 0, 0, 0, 0, 0, 10, 0, 0, 0, 0, 0, 0, 0, 3, 8.0, 7.45454545455, 3, 0
2, 0, 0, 1, 1, 0, 0, 0, 0, 0, 0, 6, 0, 1, 0, 0, 0, 0, 0, 3, 13.0, 7.28, 2, 0
0, 0, 0, 0, 0, 0, 1, 0, 0, 2, 0, 7, 0, 3, 0, 0, 0, 0, 0, 2, 12.0, 8.33333333333, 2, 0
1, 0, 0, 1, 0, 0, 0, 1, 1, 0, 1, 4, 2, 1, 0, 0, 1, 0, 0, -1, 4.66666666667, 8.25, 3, 0
3, 0, 1, 2, 0, 0, 0, 0, 0, 0, 0, 6, 0, 2, 0, 0, 0, 0, 0, 2, 28.0, 7.07407407407, 1, 0
2, 0, 0, 1, 0, 1, 0, 2, 0, 0, 2, 8, 1, 1, 0, 0, 0, 0, 0, 6, 9.0, 7.77272727273, 3, 0
2, 0, 0, 1, 0, 0, 1, 0, 0, 0, 0, 2, 1, 4, 0, 1, 0, 0, 0, 0, 7.0, 6.88888888889, 3, 0
0, 0, 0, 0, 0, 0, 0, 0, 0, 0, 0, 2, 0, 0, 0, 0, 0, 0, 0, -3, 4.0, 6.71428571429, 2, 0
0, 1, 0, 0, 1, 0, 0, 0, 0, 0, 0, 3, 1, 0, 2, 0, 0, 0, 0, -4, 10.0, 8.21052631579, 2, 0
0, 1, 2, 1, 1, 0, 0, 0, 0, 0, 0, 5, 2, 1, 1, 0, 0, 0, 0, 0, 9.0, 7.2, 3, 0
1, 0, 0, 1, 3, 0, 0, 0, 0, 0, 0, 5, 0, 3, 1, 0, 0, 0, 0, -4, 24.0, 7.63636363636, 1, 0
1, 0, 1, 0, 0, 0, 0, 0, 0, 0, 0, 6, 0, 1, 0, 1, 0, 0, 0, 0, 7.5, 7.07142857143, 2, 0
1, 0, 0, 0, 0, 0, 0, 0, 0, 0, 0, 3, 0, 2, 0, 0, 0, 0, 0, -3, 15.0, 6.42857142857, 1, 0
3, 0, 0, 1, 1, 0, 0, 0, 0, 0, 1, 4, 1, 0, 0, 1, 0, 0, 0, -4, 9.5, 7.16666666667, 2, 0
4, 0, 1, 3, 1, 0, 3, 1, 0, 0, 1, 6, 1, 1, 0, 0, 2, 0, 0, -8, 8.25, 7.39130434783, 4, 0
1, 0, 1, 1, 1, 1, 0, 0, 1, 0, 0, 7, 0, 0, 0, 0, 0, 0, 0, 0, 24.0, 7.08695652174, 1, 0
1, 0, 1, 1, 0, 0, 0, 0, 0, 0, 0, 1, 0, 2, 0, 0, 0, 0, 0, -6, 7.0, 7.18181818182, 2, 0
0, 0, 0, 0, 0, 0, 0, 0, 0, 0, 0, 2, 0, 0, 0, 0, 0, 0, 0, 0, 2.0, 7.0, 1, 0
0, 0, 0, 0, 1, 0, 0, 1, 0, 0, 1, 4, 2, 2, 0, 0, 1, 0, 0, 0, 15.0, 6.85714285714, 1, 0
0, 0, 0, 0, 1, 0, 0, 0, 0, 0, 0, 2, 0, 1, 0, 0, 0, 0, 0, 0, 6.0, 9.16666666667, 1, 0
0, 0, 0, 0, 0, 0, 0, 0, 0, 0, 0, 6, 1, 1, 0, 0, 5, 0, 0, 3, 6.5, 7.90909090909, 2, 0
0, 0, 0, 1, 1, 0, 0, 1, 0, 0, 1, 4, 1, 0, 0, 0, 0, 0, 0, 0, 5.0, 7.75, 3, 0
0, 0, 0, 0, 0, 0, 0, 0, 0, 0, 0, 0, 0, 1, 0, 0, 0, 0, 0, -1, 9.0, 6.75, 1, 0
3, 0, 2, 0, 0, 1, 1, 0, 0, 0, 0, 7, 0, 3, 1, 0, 0, 0, 0, -1, 11.0, 6.65517241379, 3, 0
2, 0, 0, 0, 0, 0, 0, 1, 0, 0, 1, 2, 0, 2, 0, 0, 0, 0, 0, 4, 4.66666666667, 7.18181818182, 3, 0
2, 2, 1, 2, 0, 0, 0, 1, 1, 0, 0, 5, 3, 0, 0, 0, 0, 0, 0, -8, 10.0, 7.18518518519, 3, 0
0, 0, 0, 1, 2, 0, 0, 0, 0, 0, 0, 2, 0, 2, 0, 1, 0, 0, 0, -2, 5.0, 7.44444444444, 2, 0
0, 0, 0, 0, 0, 0, 1, 0, 0, 0, 0, 4, 2, 0, 0, 0, 1, 0, 0, 2, 16.0, 7.2, 1, 0
1, 0, 0, 2, 1, 0, 3, 1, 0, 0, 1, 3, 2, 0, 0, 0, 1, 0, 0, 0, 16.0, 7.0, 1, 0
2, 1, 0, 1, 0, 0, 2, 0, 0, 0, 0, 5, 0, 1, 0, 0, 0, 0, 0, -2, 12.0, 6.55, 2, 0
0, 0, 0, 0, 0, 0, 0, 0, 0, 0, 0, 1, 0, 0, 0, 0, 0, 0, 0, 0, 6.0, 9.6, 1, 0
0, 0, 0, 0, 0, 0, 0, 0, 0, 0, 0, 3, 0, 1, 0, 0, 0, 0, 0, -4, 9.0, 6.75, 1, 0
1, 0, 0, 0, 0, 0, 1, 0, 0, 0, 0, 6, 0, 0, 0, 0, 0, 0, 0, -5, 5.33333333333, 6.75, 3, 0
0, 0, 0, 0, 0, 0, 0, 0, 0, 0, 0, 3, 0, 1, 0, 1, 0, 0, 0, -1, 7.0, 7.0, 1, 0
0, 0, 0, 0, 0, 1, 1, 0, 0, 0, 0, 2, 0, 2, 0, 0, 0, 0, 0, 0, 7.0, 7.0, 1, 0
2, 0, 2, 0, 0, 0, 0, 1, 0, 0, 1, 1, 1, 1, 0, 0, 0, 0, 0, 0, 7.5, 7.28571428571, 2, 0
1, 0, 0, 1, 0, 0, 0, 0, 0, 0, 0, 4, 0, 2, 0, 0, 0, 0, 0, -4, 12.0, 8.16666666667, 1, 0
1, 0, 1, 0, 0, 0, 0, 0, 0, 0, 0, 5, 0, 0, 0, 0, 0, 0, 0, -1, 8.0, 8.0, 1, 0
3, 0, 0, 1, 4, 1, 0, 1, 0, 0, 1, 3, 0, 2, 0, 0, 0, 0, 0, 6, 12.0, 6.86363636364, 2, 0
0, 2, 0, 0, 0, 0, 1, 1, 0, 0, 1, 3, 1, 2, 0, 0, 0, 0, 0, 0, 8.0, 7.30769230769, 2, 0
4, 0, 0, 1, 1, 0, 0, 0, 0, 0, 0, 4, 0, 1, 0, 1, 0, 0, 0, 1, 7.66666666667, 6.7, 3, 0
1, 1, 0, 0, 0, 0, 0, 0, 0, 0, 0, 1, 1, 0, 0, 1, 0, 0, 0, -2, 4.0, 6.0, 1, 0
0, 0, 1, 0, 0, 0, 0, 0, 0, 0, 0, 1, 0, 1, 0, 1, 0, 0, 0, 0, 5.0, 7.66666666667, 1, 0
3, 0, 0, 1, 1, 0, 0, 0, 0, 0, 0, 1, 2, 0, 1, 0, 0, 0, 0, 1, 25.0, 7.5652173913, 1, 0
0, 0, 0, 0, 0, 0, 0, 0, 0, 0, 0, 1, 0, 1, 0, 0, 0, 0, 0, 0, 3.0, 6.4, 2, 0
1, 0, 0, 1, 0, 0, 0, 0, 0, 0, 0, 2, 2, 2, 0, 0, 0, 0, 0, -4, 19.0, 8.16666666667, 1, 0
1, 0, 0, 0, 0, 0, 0, 0, 0, 0, 0, 0, 0, 2, 0, 0, 0, 0, 0, -3, 3.0, 8.0, 2, 0
0, 0, 0, 0, 0, 0, 0, 0, 0, 0, 0, 1, 0, 0, 0, 0, 0, 0, 0, 0, 4.0, 8.25, 1, 0
5, 0, 0, 1, 0, 0, 0, 0, 0, 0, 1, 9, 0, 1, 0, 0, 0, 0, 0, -2, 9.0, 6.5, 3, 0
1, 3, 0, 1, 0, 0, 1, 0, 0, 0, 0, 2, 0, 1, 0, 0, 0, 0, 0, 0, 19.0, 7.41176470588, 1, 0
1, 0, 0, 0, 0, 0, 0, 0, 0, 0, 0, 1, 0, 0, 0, 0, 0, 0, 0, -3, 6.0, 8.5, 1, 0
0, 1, 0, 0, 0, 0, 1, 0, 0, 0, 0, 3, 0, 0, 1, 0, 0, 0, 0, 0, 7.0, 8.4, 1, 0
0, 0, 0, 0, 1, 0, 0, 0, 0, 0, 0, 1, 1, 1, 0, 0, 0, 0, 0, 0, 7.0, 7.57142857143, 1, 0
4, 0, 0, 2, 1, 0, 0, 2, 0, 0, 2, 5, 2, 3, 0, 1, 1, 0, 0, -6, 7.25, 7.12, 4, 0
2, 0, 0, 0, 0, 0, 0, 0, 0, 0, 0, 1, 0, 1, 0, 0, 0, 0, 0, -1, 8.0, 7.28571428571, 1, 0
2, 0, 0, 1, 3, 0, 1, 0, 0, 0, 0, 5, 2, 0, 0, 0, 0, 0, 0, 4, 8.0, 7.30769230769, 2, 0
0, 0, 1, 0, 1, 0, 0, 0, 1, 0, 0, 3, 0, 1, 0, 0, 0, 0, 0, -1, 12.0, 8.0, 1, 0
0, 1, 0, 0, 0, 0, 0, 0, 0, 0, 0, 3, 0, 0, 0, 0, 0, 0, 0, 0, 4.0, 8.66666666667, 1, 0
1, 1, 0, 0, 0, 0, 0, 0, 0, 0, 0, 4, 0, 0, 0, 0, 0, 0, 0, 0, 5.0, 10.25, 1, 0
0, 0, 0, 0, 0, 0, 0, 1, 0, 0, 1, 4, 0, 0, 0, 1, 0, 0, 0, 0, 3.5, 8.16666666667, 2, 0
0, 0, 0, 1, 0, 0, 0, 0, 0, 0, 0, 8, 0, 2, 0, 0, 0, 0, 0, -3, 8.0, 7.06666666667, 2, 0
0, 0, 0, 0, 0, 0, 1, 0, 0, 0, 0, 2, 0, 1, 0, 0, 0, 0, 0, 1, 9.0, 7.5, 1, 0
0, 0, 2, 0, 0, 0, 0, 0, 0, 0, 0, 4, 0, 0, 0, 1, 0, 0, 0, -1, 12.0, 6.90909090909, 1, 0
1, 0, 0, 0, 0, 0, 0, 0, 0, 0, 0, 4, 0, 0, 0, 0, 0, 0, 0, 0, 8.0, 7.14285714286, 1, 0
0, 0, 1, 0, 1, 0, 0, 0, 0, 0, 0, 2, 0, 0, 0, 0, 0, 0, 0, -1, 11.0, 8.1, 1, 0
0, 0, 0, 0, 0, 0, 0, 1, 1, 0, 0, 2, 0, 0, 0, 0, 1, 0, 0, 0, 3.0, 15.5, 1, 0
1, 0, 2, 3, 1, 0, 1, 2, 0, 0, 4, 5, 0, 1, 0, 0, 0, 0, 0, -1, 9.33333333333, 7.6, 3, 0
0, 0, 0, 1, 0, 0, 0, 0, 0, 0, 2, 4, 0, 0, 0, 0, 0, 0, 0, 0, 7.5, 7.30769230769, 2, 0
4, 0, 2, 2, 0, 0, 0, 0, 0, 0, 0, 7, 1, 1, 0, 0, 0, 0, 0, -8, 26.0, 7.04, 1, 0
2, 1, 1, 0, 0, 0, 0, 0, 0, 0, 0, 4, 1, 1, 0, 1, 1, 0, 0, 0, 11.5, 7.19047619048, 2, 0
1, 0, 0, 1, 0, 0, 0, 1, 0, 0, 1, 5, 0, 1, 0, 0, 0, 0, 0, 0, 19.0, 6.83333333333, 1, 0
5, 0, 1, 1, 0, 1, 0, 0, 0, 0, 0, 9, 0, 2, 0, 0, 0, 0, 0, -3, 14.5, 7.375, 2, 0
0, 0, 0, 0, 0, 0, 0, 0, 0, 0, 0, 2, 0, 0, 0, 0, 0, 0, 0, 0, 3.0, 22.5, 1, 0
0, 0, 0, 0, 0, 0, 0, 0, 0, 0, 0, 2, 0, 0, 0, 0, 0, 0, 0, -2, 4.0, 7.0, 1, 0
2, 0, 0, 0, 0, 2, 0, 0, 0, 0, 1, 1, 2, 4, 0, 0, 0, 0, 0, -1, 14.0, 7.16666666667, 2, 0
0, 0, 0, 0, 0, 0, 0, 0, 0, 0, 0, 1, 0, 0, 0, 0, 1, 0, 0, 0, 3.5, 6.6, 2, 0
2, 1, 1, 1, 0, 0, 1, 0, 0, 0, 1, 14, 0, 1, 0, 0, 0, 0, 0, -1, 10.6666666667, 6.79310344828, 3, 0
2, 1, 1, 0, 4, 0, 0, 0, 0, 0, 0, 8, 0, 1, 1, 2, 0, 0, 0, 4, 9.66666666667, 7.70833333333, 3, 0
1, 0, 1, 0, 0, 0, 0, 1, 0, 0, 1, 6, 0, 3, 0, 0, 0, 0, 0, -2, 6.0, 7.06666666667, 3, 0
3, 0, 0, 0, 0, 0, 0, 0, 0, 0, 0, 4, 0, 0, 0, 0, 0, 0, 0, -2, 11.0, 7.54545454545, 1, 0
1, 0, 0, 0, 0, 0, 1, 0, 0, 0, 0, 2, 0, 0, 0, 0, 0, 0, 0, -2, 6.0, 7.4, 1, 0
0, 0, 0, 0, 0, 0, 1, 0, 0, 0, 0, 3, 0, 1, 0, 0, 0, 0, 0, 0, 8.0, 7.42857142857, 1, 0
0, 0, 0, 0, 0, 0, 0, 0, 0, 0, 0, 1, 1, 0, 0, 0, 0, 0, 0, 0, 7.0, 6.66666666667, 1, 0
3, 0, 0, 0, 0, 1, 0, 1, 0, 0, 2, 7, 0, 2, 0, 1, 1, 0, 0, 6, 7.66666666667, 7.15, 3, 0
1, 1, 0, 0, 0, 0, 0, 0, 0, 0, 0, 2, 0, 1, 0, 1, 0, 0, 0, 3, 5.5, 7.55555555556, 2, 0
1, 0, 0, 0, 0, 0, 0, 0, 0, 0, 0, 1, 0, 0, 0, 0, 0, 0, 0, 0, 5.0, 5.6, 1, 0
0, 0, 0, 0, 0, 0, 0, 0, 0, 0, 0, 5, 0, 0, 1, 0, 0, 0, 0, 0, 2.66666666667, 9.66666666667, 3, 0
0, 0, 0, 0, 0, 0, 0, 0, 0, 0, 0, 2, 0, 2, 0, 0, 0, 0, 0, 1, 6.0, 8.33333333333, 1, 0
1, 0, 3, 0, 1, 0, 0, 0, 0, 0, 0, 7, 0, 0, 0, 0, 0, 0, 0, 7, 6.66666666667, 6.72222222222, 3, 0
1, 0, 2, 2, 0, 0, 0, 0, 0, 0, 0, 4, 0, 1, 0, 1, 0, 0, 0, -1, 11.0, 7.2, 2, 0
1, 0, 0, 0, 2, 0, 1, 0, 0, 0, 0, 4, 3, 1, 0, 0, 1, 0, 0, 0, 6.33333333333, 8.53333333333, 3, 0
0, 0, 0, 0, 0, 0, 0, 0, 0, 0, 0, 2, 0, 1, 0, 0, 0, 0, 0, 2, 7.0, 7.28571428571, 1, 0
1, 0, 1, 0, 1, 0, 0, 0, 0, 0, 0, 2, 0, 0, 0, 0, 0, 0, 0, -2, 6.0, 8.2, 1, 0
1, 1, 0, 0, 0, 0, 0, 0, 0, 0, 0, 3, 0, 1, 0, 1, 0, 1, 0, 0, 4.5, 7.5, 2, 0
1, 0, 0, 0, 0, 1, 1, 0, 0, 2, 0, 6, 0, 1, 0, 1, 1, 1, 0, 0, 12.0, 6.1875, 2, 0
1, 0, 0, 0, 2, 0, 1, 1, 0, 0, 1, 10, 0, 1, 2, 0, 1, 0, 0, 3, 9.33333333333, 7.64, 3, 0
2, 0, 1, 1, 0, 0, 0, 0, 0, 0, 0, 3, 0, 0, 0, 0, 0, 0, 0, 2, 7.5, 7.15384615385, 2, 0
1, 0, 0, 1, 3, 0, 0, 0, 0, 0, 0, 7, 0, 2, 0, 0, 0, 0, 0, -6, 9.0, 7.92, 3, 0
0, 0, 1, 0, 1, 0, 0, 1, 0, 0, 0, 7, 0, 1, 0, 0, 0, 0, 0, -5, 23.0, 7.42105263158, 1, 0
1, 0, 0, 0, 0, 0, 0, 0, 0, 0, 0, 3, 0, 0, 0, 0, 0, 0, 0, 1, 7.0, 6.71428571429, 1, 0
0, 0, 0, 0, 0, 0, 1, 0, 0, 0, 0, 2, 1, 1, 0, 0, 0, 0, 0, -1, 6.5, 8.5, 2, 0
1, 0, 0, 0, 1, 1, 1, 0, 1, 0, 0, 6, 1, 1, 0, 0, 0, 0, 0, 0, 6.0, 7.66666666667, 5, 0
0, 0, 0, 0, 0, 0, 0, 1, 0, 0, 1, 3, 0, 0, 0, 0, 0, 0, 0, -2, 8.0, 8.57142857143, 1, 0
0, 0, 0, 0, 0, 0, 0, 0, 0, 0, 0, 4, 0, 0, 0, 0, 1, 0, 0, -4, 7.0, 6.66666666667, 1, 0
4, 2, 2, 1, 3, 0, 0, 0, 0, 0, 0, 10, 0, 2, 0, 0, 0, 0, 0, 1, 7.25, 7.69230769231, 4, 0
1, 0, 0, 0, 1, 0, 0, 0, 0, 0, 0, 2, 0, 0, 0, 0, 0, 0, 0, -1, 8.0, 7.625, 1, 0
1, 0, 1, 0, 2, 0, 0, 0, 0, 0, 0, 1, 0, 2, 0, 0, 0, 0, 0, 2, 8.0, 6.85714285714, 1, 0
1, 0, 1, 0, 0, 0, 1, 0, 0, 0, 0, 1, 1, 0, 0, 0, 0, 0, 0, -1, 7.0, 7.16666666667, 1, 0
3, 0, 1, 1, 0, 0, 0, 0, 0, 0, 0, 2, 0, 0, 0, 0, 0, 0, 0, -6, 8.0, 7.21428571429, 2, 0
0, 0, 0, 1, 0, 0, 0, 0, 0, 0, 0, 2, 1, 1, 0, 0, 2, 0, 0, -2, 10.0, 7.6, 1, 0
1, 0, 0, 0, 0, 0, 0, 0, 0, 0, 0, 2, 1, 1, 0, 0, 0, 0, 0, 0, 8.0, 9.125, 1, 0
1, 2, 0, 2, 0, 0, 0, 0, 0, 0, 0, 1, 0, 4, 1, 0, 0, 0, 0, -3, 12.5, 6.91304347826, 2, 0
3, 0, 0, 1, 0, 1, 0, 0, 0, 0, 0, 5, 0, 1, 0, 0, 0, 0, 0, -3, 9.5, 7.3125, 2, 0
2, 0, 1, 0, 0, 0, 1, 0, 0, 0, 0, 7, 0, 4, 0, 0, 0, 0, 0, 3, 9.5, 7.8125, 2, 0
2, 0, 0, 0, 0, 0, 0, 0, 0, 0, 0, 8, 0, 1, 0, 0, 0, 0, 0, 3, 10.5, 6.65, 2, 0
1, 0, 0, 0, 0, 0, 0, 0, 0, 0, 0, 2, 0, 1, 0, 0, 0, 0, 0, 1, 4.5, 8.375, 2, 0
2, 3, 0, 2, 2, 0, 1, 1, 0, 0, 1, 8, 2, 1, 0, 3, 0, 0, 0, -3, 14.5, 7.54166666667, 2, 0
0, 0, 0, 0, 0, 0, 0, 0, 0, 0, 0, 2, 0, 2, 0, 0, 0, 0, 0, 0, 6.0, 7.16666666667, 1, 0
1, 0, 0, 0, 0, 0, 0, 0, 0, 0, 0, 1, 0, 1, 0, 0, 0, 0, 0, 0, 5.0, 6.5, 1, 0
0, 0, 0, 0, 0, 0, 0, 1, 1, 0, 0, 2, 0, 1, 0, 1, 0, 0, 0, -2, 5.0, 7.625, 2, 0
1, 0, 0, 0, 1, 0, 0, 0, 0, 0, 0, 3, 0, 0, 0, 0, 0, 0, 0, 0, 9.0, 6.11111111111, 1, 0
2, 0, 0, 3, 0, 0, 1, 0, 0, 0, 1, 10, 0, 2, 1, 0, 0, 0, 0, 7, 9.33333333333, 7.04166666667, 3, 0
2, 0, 0, 0, 0, 0, 1, 0, 0, 0, 0, 3, 0, 1, 0, 0, 0, 0, 0, 3, 13.0, 8.18181818182, 1, 0
2, 0, 0, 1, 3, 0, 1, 0, 0, 0, 1, 5, 0, 3, 0, 1, 0, 0, 0, -3, 11.5, 7.55, 2, 0
0, 0, 0, 1, 0, 0, 0, 1, 1, 0, 0, 5, 0, 0, 0, 0, 0, 0, 0, -1, 16.0, 7.28571428571, 1, 0
0, 0, 0, 0, 0, 0, 0, 0, 0, 0, 0, 1, 0, 0, 0, 0, 0, 0, 0, 1, 2.0, 9.5, 1, 0
2, 1, 0, 1, 0, 0, 0, 0, 0, 0, 0, 7, 0, 0, 0, 0, 0, 0, 0, -2, 3.66666666667, 5.875, 3, 0
0, 0, 0, 0, 0, 0, 0, 4, 2, 0, 2, 6, 0, 0, 0, 0, 0, 0, 0, -2, 7.5, 8.0, 2, 0
1, 0, 1, 1, 0, 0, 0, 0, 0, 0, 0, 3, 1, 1, 0, 0, 0, 0, 0, 0, 4.25, 7.69230769231, 4, 0
3, 1, 0, 1, 1, 0, 0, 0, 0, 0, 0, 3, 0, 0, 0, 1, 0, 0, 0, 3, 14.0, 7.69230769231, 1, 0
1, 0, 0, 0, 0, 0, 0, 0, 0, 0, 0, 3, 0, 1, 0, 0, 0, 0, 0, 0, 4.0, 9.77777777778, 3, 0
2, 0, 0, 0, 1, 1, 0, 0, 0, 0, 0, 1, 0, 1, 0, 0, 0, 0, 0, -1, 10.0, 7.0, 1, 0
3, 2, 0, 0, 0, 0, 0, 0, 0, 0, 0, 5, 0, 1, 0, 2, 0, 0, 0, 5, 11.0, 6.55, 2, 0
0, 0, 0, 0, 0, 0, 0, 0, 0, 0, 0, 3, 0, 1, 0, 0, 0, 0, 0, 0, 6.0, 8.33333333333, 1, 0
2, 0, 0, 1, 0, 0, 0, 1, 3, 2, 0, 6, 0, 2, 0, 0, 0, 0, 0, 0, 18.0, 8.71428571429, 1, 0
0, 0, 0, 0, 0, 0, 0, 0, 0, 0, 0, 4, 0, 0, 0, 1, 0, 0, 0, -9, 4.5, 7.71428571429, 2, 0
0, 1, 1, 0, 0, 0, 0, 0, 0, 0, 0, 2, 0, 1, 0, 0, 0, 0, 0, 0, 13.0, 7.66666666667, 1, 0
0, 0, 0, 0, 0, 0, 2, 0, 0, 0, 0, 1, 0, 4, 0, 0, 0, 0, 0, 1, 12.0, 8.9, 1, 0
2, 0, 0, 1, 0, 1, 1, 0, 0, 0, 0, 5, 1, 1, 0, 0, 0, 0, 0, 2, 13.0, 7.72727272727, 1, 0
3, 0, 0, 2, 2, 0, 0, 0, 0, 0, 0, 3, 0, 3, 0, 2, 0, 0, 0, 2, 18.0, 7.17647058824, 1, 0
0, 0, 0, 0, 0, 0, 0, 0, 0, 0, 0, 1, 0, 0, 0, 0, 0, 0, 0, -4, 5.0, 8.2, 1, 0
2, 0, 0, 0, 0, 0, 0, 1, 0, 0, 0, 4, 0, 2, 0, 0, 0, 0, 1, 1, 15.0, 6.85714285714, 1, 0
1, 0, 1, 1, 1, 1, 2, 0, 1, 0, 0, 7, 0, 0, 0, 0, 0, 0, 0, 0, 20.0, 7.5, 1, 0
0, 1, 1, 0, 0, 0, 1, 0, 0, 0, 0, 4, 0, 0, 1, 0, 0, 0, 0, 0, 8.5, 8.46153846154, 2, 0
0, 0, 1, 0, 0, 0, 0, 0, 0, 0, 0, 3, 1, 0, 0, 1, 1, 0, 0, -4, 4.0, 9.4, 2, 0
2, 0, 1, 1, 0, 0, 0, 1, 0, 0, 2, 9, 0, 2, 0, 0, 0, 0, 0, 0, 7.0, 7.24, 4, 0
1, 1, 0, 1, 0, 0, 0, 0, 0, 0, 0, 3, 0, 1, 0, 1, 0, 0, 0, 0, 8.0, 7.875, 1, 0
2, 0, 1, 0, 0, 0, 0, 0, 0, 0, 0, 5, 1, 2, 1, 0, 16, 0, 0, 0, 19.0, 7.47058823529, 1, 0
1, 0, 0, 0, 1, 0, 0, 1, 1, 0, 0, 8, 0, 5, 0, 1, 0, 0, 0, 0, 13.0, 7.42857142857, 2, 0
0, 0, 1, 0, 0, 0, 0, 0, 0, 0, 0, 4, 0, 0, 0, 0, 0, 0, 0, 0, 9.0, 7.88888888889, 1, 0
0, 0, 0, 0, 0, 0, 0, 0, 0, 0, 0, 3, 0, 0, 0, 0, 0, 0, 0, 0, 5.0, 7.2, 1, 0
0, 0, 0, 0, 1, 0, 0, 0, 0, 0, 0, 2, 0, 0, 1, 0, 0, 0, 0, 0, 4.0, 9.33333333333, 1, 0
0, 0, 0, 0, 0, 0, 0, 2, 0, 0, 2, 1, 1, 1, 0, 0, 0, 0, 0, 0, 7.0, 7.2, 1, 0
3, 0, 0, 2, 2, 0, 0, 0, 0, 0, 0, 2, 0, 3, 0, 2, 0, 0, 0, 2, 18.0, 7.23529411765, 1, 0
1, 0, 0, 0, 0, 0, 0, 0, 0, 0, 0, 3, 0, 0, 0, 0, 0, 0, 0, 5, 3.5, 7.8, 2, 0
1, 0, 0, 0, 0, 0, 0, 0, 0, 0, 0, 3, 0, 1, 0, 0, 0, 0, 0, 0, 10.0, 6.77777777778, 1, 0
0, 0, 1, 0, 0, 1, 0, 0, 0, 0, 0, 2, 0, 1, 0, 0, 0, 0, 0, 0, 8.0, 7.15384615385, 2, 0
2, 1, 0, 0, 1, 0, 2, 0, 0, 0, 0, 8, 1, 1, 0, 0, 0, 0, 0, 0, 14.0, 7.56, 2, 0
0, 0, 0, 0, 0, 0, 2, 1, 1, 0, 0, 4, 0, 0, 0, 1, 0, 0, 0, -5, 11.0, 7.25, 1, 0
2, 0, 0, 0, 1, 0, 1, 0, 0, 0, 0, 4, 0, 1, 1, 0, 0, 0, 0, -2, 18.0, 7.52941176471, 1, 0
1, 0, 2, 1, 0, 0, 0, 0, 0, 0, 0, 1, 0, 3, 0, 0, 0, 0, 0, 0, 15.0, 7.0, 1, 0
0, 0, 0, 1, 1, 0, 0, 0, 0, 0, 0, 1, 0, 1, 0, 0, 0, 0, 0, -2, 5.0, 7.5, 1, 0
1, 0, 1, 0, 0, 0, 0, 0, 0, 0, 0, 2, 0, 0, 0, 0, 1, 0, 0, 0, 10.0, 7.22222222222, 1, 0
1, 0, 0, 0, 0, 0, 0, 1, 0, 0, 1, 5, 0, 0, 0, 0, 0, 0, 0, 1, 7.0, 7.83333333333, 2, 0
1, 0, 0, 0, 0, 0, 1, 0, 0, 0, 2, 4, 0, 3, 0, 0, 1, 0, 0, 0, 7.5, 8.0, 2, 0
1, 0, 0, 0, 0, 0, 0, 1, 0, 0, 1, 3, 0, 3, 0, 0, 0, 0, 0, 0, 7.0, 7.23076923077, 2, 0
1, 1, 0, 0, 0, 0, 0, 1, 0, 0, 1, 2, 0, 0, 0, 1, 0, 0, 0, -2, 2.5, 6.0, 2, 0
1, 0, 1, 0, 1, 0, 0, 1, 1, 0, 0, 6, 0, 0, 0, 0, 0, 0, 0, 0, 15.0, 8.35714285714, 1, 0
1, 0, 1, 0, 0, 0, 0, 0, 0, 0, 3, 6, 0, 1, 0, 0, 0, 0, 0, -1, 3.75, 6.58333333333, 4, 0
1, 0, 0, 1, 0, 0, 0, 0, 0, 0, 0, 4, 1, 3, 0, 1, 1, 0, 0, 4, 8.5, 7.0, 2, 0
1, 0, 1, 0, 0, 0, 0, 0, 0, 0, 0, 2, 0, 0, 0, 0, 0, 0, 0, -4, 5.5, 8.22222222222, 2, 0
4, 0, 0, 1, 0, 0, 0, 0, 0, 0, 0, 16, 0, 3, 0, 1, 0, 0, 0, 0, 7.75, 6.89285714286, 4, 0
0, 0, 0, 1, 0, 0, 0, 0, 0, 0, 0, 2, 1, 0, 0, 0, 0, 0, 0, 0, 11.0, 7.1, 1, 0
1, 0, 0, 1, 1, 0, 1, 1, 0, 0, 1, 7, 0, 0, 0, 0, 0, 0, 0, 4, 11.5, 6.66666666667, 2, 0
3, 0, 0, 1, 0, 0, 1, 1, 0, 0, 1, 3, 0, 1, 0, 0, 0, 0, 0, -10, 6.33333333333, 7.3125, 3, 0
0, 1, 0, 2, 2, 0, 0, 0, 0, 0, 0, 2, 1, 0, 0, 0, 0, 0, 0, -2, 12.5, 7.30434782609, 2, 0
0, 0, 0, 0, 0, 0, 1, 1, 0, 0, 1, 4, 0, 1, 0, 0, 0, 0, 0, -5, 6.0, 8.33333333333, 2, 0
0, 0, 0, 0, 0, 0, 0, 1, 0, 0, 1, 3, 0, 0, 1, 0, 0, 0, 0, -5, 6.5, 8.27272727273, 2, 0
2, 2, 0, 0, 2, 0, 0, 1, 0, 0, 0, 9, 1, 4, 1, 2, 1, 0, 0, 0, 5.0, 7.86956521739, 6, 0
2, 0, 0, 0, 0, 0, 0, 0, 0, 0, 0, 5, 0, 1, 0, 0, 0, 0, 0, 0, 12.0, 6.36363636364, 1, 0
0, 0, 0, 0, 0, 0, 0, 0, 0, 0, 0, 1, 0, 1, 0, 0, 0, 0, 0, -1, 5.0, 8.2, 1, 0
3, 0, 0, 2, 1, 2, 0, 1, 0, 0, 1, 4, 1, 2, 0, 1, 0, 0, 0, -5, 26.0, 6.91666666667, 1, 0
0, 0, 0, 1, 0, 0, 0, 0, 0, 0, 0, 1, 0, 0, 0, 0, 0, 0, 0, -2, 5.0, 10.8, 1, 0
0, 0, 1, 0, 0, 0, 0, 0, 0, 0, 0, 4, 0, 2, 0, 0, 0, 0, 0, -1, 7.0, 7.30769230769, 2, 0
0, 0, 0, 0, 0, 0, 0, 0, 0, 0, 0, 0, 1, 0, 0, 0, 0, 0, 0, 0, 3.0, 9.0, 1, 0
5, 0, 0, 0, 0, 0, 1, 0, 0, 0, 0, 4, 1, 0, 1, 0, 2, 0, 0, -4, 9.5, 6.625, 2, 0
0, 0, 1, 1, 1, 0, 0, 0, 0, 0, 0, 6, 0, 3, 0, 0, 0, 0, 0, 3, 12.5, 7.75, 2, 0
1, 1, 1, 0, 0, 0, 0, 0, 0, 0, 0, 4, 1, 1, 0, 0, 0, 0, 0, 4, 9.5, 7.5625, 2, 0
2, 0, 1, 2, 1, 2, 1, 1, 0, 0, 0, 9, 0, 1, 0, 0, 0, 1, 0, -2, 29.0, 7.625, 1, 0
1, 0, 0, 0, 1, 0, 0, 0, 0, 0, 0, 5, 0, 1, 0, 0, 0, 0, 0, 0, 7.0, 7.76923076923, 2, 0
3, 0, 0, 1, 0, 0, 0, 1, 1, 0, 0, 2, 0, 1, 0, 1, 0, 0, 0, 0, 16.0, 6.78571428571, 1, 0
1, 0, 0, 0, 0, 0, 0, 0, 0, 0, 0, 2, 0, 0, 0, 0, 0, 0, 0, 1, 10.0, 7.1, 1, 0
0, 0, 0, 0, 0, 0, 0, 0, 1, 0, 0, 8, 1, 0, 0, 0, 0, 0, 0, 1, 17.0, 8.4, 1, 0
0, 0, 0, 1, 1, 0, 1, 0, 0, 0, 0, 6, 0, 1, 0, 0, 0, 0, 0, -3, 16.0, 6.85714285714, 1, 0
0, 0, 0, 0, 0, 0, 0, 0, 0, 0, 0, 2, 1, 0, 0, 0, 0, 0, 0, 0, 4.0, 9.0, 1, 0
2, 1, 0, 0, 0, 0, 1, 0, 0, 0, 0, 5, 0, 1, 0, 2, 0, 0, 0, -1, 12.0, 6.45454545455, 1, 0
1, 0, 1, 1, 1, 0, 0, 0, 0, 0, 0, 5, 0, 0, 0, 0, 0, 0, 0, 3, 9.5, 8.29411764706, 2, 0
0, 1, 1, 0, 0, 0, 0, 0, 0, 0, 0, 4, 0, 1, 0, 0, 0, 0, 0, 3, 12.0, 9.45454545455, 1, 0
0, 0, 1, 3, 0, 0, 0, 0, 0, 0, 2, 1, 0, 0, 0, 1, 0, 0, 0, 0, 5.5, 8.44444444444, 2, 0
1, 0, 0, 0, 0, 0, 1, 0, 1, 0, 0, 7, 0, 4, 0, 0, 0, 0, 0, -1, 10.0, 7.76470588235, 2, 0
4, 0, 0, 0, 1, 0, 0, 2, 0, 0, 2, 12, 0, 1, 0, 0, 0, 0, 0, -6, 8.66666666667, 7.45833333333, 3, 0
4, 0, 0, 0, 0, 0, 0, 0, 0, 0, 0, 2, 0, 2, 0, 0, 2, 0, 0, 2, 7.33333333333, 6.66666666667, 3, 0
0, 0, 1, 0, 2, 0, 0, 0, 0, 0, 0, 5, 1, 3, 0, 0, 0, 0, 0, 3, 12.0, 8.5, 2, 0
0, 1, 0, 0, 0, 0, 0, 0, 0, 0, 0, 3, 0, 0, 1, 0, 0, 0, 0, 0, 10.0, 8.33333333333, 1, 0
0, 0, 0, 0, 0, 0, 0, 0, 0, 0, 0, 3, 1, 0, 0, 0, 1, 0, 0, 0, 2.5, 9.75, 2, 0
0, 0, 0, 0, 0, 0, 0, 2, 1, 0, 1, 7, 1, 1, 0, 0, 3, 0, 0, -1, 19.0, 6.5625, 1, 0
2, 3, 1, 0, 0, 0, 1, 0, 0, 0, 0, 4, 0, 3, 1, 0, 2, 0, 0, -3, 28.0, 6.76923076923, 1, 0
2, 0, 0, 0, 0, 0, 0, 0, 0, 0, 0, 4, 0, 1, 0, 0, 0, 1, 0, -1, 11.0, 6.33333333333, 1, 0
3, 0, 2, 0, 1, 0, 0, 0, 0, 0, 0, 4, 0, 2, 0, 0, 0, 0, 0, -2, 17.0, 7.3125, 1, 0
2, 0, 0, 1, 0, 0, 0, 0, 0, 0, 0, 9, 0, 2, 0, 0, 0, 0, 0, 0, 6.2, 7.33333333333, 5, 0
1, 1, 0, 0, 0, 0, 0, 1, 0, 0, 1, 2, 0, 1, 0, 0, 0, 0, 0, 3, 6.5, 7.45454545455, 2, 0
3, 0, 0, 1, 1, 0, 1, 0, 0, 0, 0, 11, 0, 1, 0, 1, 0, 0, 0, -2, 16.0, 7.0, 2, 0
1, 0, 0, 0, 0, 0, 0, 0, 0, 0, 0, 1, 0, 0, 0, 0, 0, 0, 0, 0, 3.0, 7.0, 1, 0
2, 1, 0, 0, 0, 0, 0, 1, 0, 0, 1, 5, 2, 0, 0, 0, 0, 0, 0, 6, 7.66666666667, 7.15, 3, 0
1, 0, 1, 0, 0, 1, 0, 0, 0, 0, 0, 7, 1, 0, 0, 0, 0, 0, 0, 1, 13.0, 8.04166666667, 2, 0
0, 0, 1, 0, 0, 0, 0, 0, 0, 0, 0, 6, 0, 1, 0, 0, 0, 0, 0, 1, 6.5, 8.54545454545, 2, 0
0, 2, 2, 0, 0, 0, 0, 0, 0, 0, 1, 6, 0, 1, 1, 0, 0, 0, 0, 3, 6.25, 8.09523809524, 4, 0
3, 2, 0, 1, 0, 0, 2, 0, 0, 0, 0, 6, 0, 2, 0, 3, 0, 0, 0, -4, 10.5, 6.5, 2, 0
0, 0, 0, 0, 0, 0, 1, 0, 0, 0, 0, 3, 0, 2, 0, 0, 0, 0, 0, 0, 9.0, 7.625, 1, 0
1, 0, 0, 0, 2, 0, 0, 0, 0, 0, 0, 7, 0, 1, 0, 0, 0, 0, 0, 3, 4.0, 7.38461538462, 4, 0
0, 0, 0, 0, 0, 0, 1, 0, 0, 0, 0, 5, 0, 1, 0, 0, 1, 0, 0, 0, 5.33333333333, 10.6666666667, 3, 0
2, 0, 0, 1, 0, 0, 0, 1, 0, 0, 1, 3, 0, 3, 0, 0, 0, 0, 0, 2, 18.0, 6.76470588235, 1, 0
1, 0, 1, 2, 3, 0, 0, 0, 0, 0, 0, 5, 0, 0, 0, 0, 0, 0, 0, 1, 25.0, 8.04166666667, 1, 0
3, 0, 1, 0, 0, 0, 1, 0, 0, 0, 0, 4, 1, 1, 0, 0, 0, 0, 0, 2, 11.0, 8.0, 2, 0
2, 1, 1, 1, 1, 0, 0, 0, 0, 0, 0, 3, 0, 0, 0, 1, 0, 0, 0, 3, 15.0, 7.42857142857, 1, 0
0, 0, 0, 0, 2, 0, 0, 0, 0, 0, 0, 5, 0, 2, 0, 1, 0, 0, 0, 6, 18.0, 7.83333333333, 1, 0
1, 0, 0, 0, 0, 0, 0, 0, 0, 0, 0, 3, 0, 0, 0, 0, 0, 0, 0, 0, 7.0, 7.71428571429, 1, 0
0, 0, 0, 0, 0, 1, 0, 1, 0, 0, 0, 4, 0, 2, 1, 0, 0, 0, 0, 3, 16.0, 6.66666666667, 1, 0
1, 3, 0, 1, 0, 1, 0, 0, 0, 0, 0, 9, 0, 0, 0, 3, 0, 0, 0, -1, 16.0, 6.25, 1, 0
2, 1, 0, 0, 0, 0, 1, 1, 0, 0, 1, 2, 0, 1, 0, 0, 0, 0, 0, -2, 12.0, 7.1, 1, 0
0, 0, 0, 1, 0, 1, 0, 0, 0, 0, 0, 4, 0, 0, 0, 0, 0, 0, 0, -3, 14.0, 8.61538461538, 1, 0
1, 0, 1, 0, 1, 0, 0, 2, 0, 0, 3, 5, 0, 2, 0, 0, 0, 0, 0, -1, 4.0, 7.5, 4, 0
1, 0, 0, 0, 0, 1, 0, 1, 0, 0, 0, 3, 2, 0, 0, 0, 0, 0, 1, 2, 7.0, 7.5, 1, 0
0, 0, 1, 0, 0, 0, 0, 0, 0, 0, 0, 5, 0, 1, 1, 0, 0, 0, 0, -1, 10.0, 7.23529411765, 2, 0
0, 1, 0, 0, 0, 0, 0, 1, 0, 1, 0, 2, 1, 0, 0, 0, 0, 1, 0, 3, 4.0, 7.25, 1, 0
1, 0, 0, 0, 0, 0, 0, 0, 0, 0, 0, 1, 0, 0, 0, 0, 0, 0, 0, -2, 3.0, 7.66666666667, 1, 0
0, 0, 0, 0, 0, 0, 0, 0, 0, 0, 0, 1, 0, 0, 0, 0, 0, 0, 0, 0, 4.0, 7.25, 1, 0
3, 0, 4, 0, 1, 0, 1, 0, 0, 0, 0, 11, 0, 3, 0, 0, 0, 0, 0, -2, 15.0, 7.14814814815, 2, 0
1, 0, 5, 1, 3, 0, 0, 0, 0, 0, 0, 4, 0, 2, 1, 0, 0, 0, 0, 0, 13.5, 7.48, 2, 0
0, 0, 0, 0, 0, 0, 0, 1, 0, 0, 1, 3, 0, 1, 0, 0, 0, 0, 0, 0, 6.0, 8.2, 1, 0
1, 0, 1, 0, 0, 0, 0, 0, 0, 0, 0, 2, 0, 1, 0, 0, 0, 0, 0, 3, 5.66666666667, 6.53846153846, 3, 0
1, 1, 0, 0, 0, 0, 0, 1, 0, 0, 0, 5, 0, 2, 0, 0, 0, 0, 0, 3, 9.0, 6.71428571429, 1, 0
3, 4, 1, 1, 3, 0, 0, 1, 0, 0, 1, 5, 1, 3, 0, 4, 0, 0, 0, 0, 17.5, 6.54545454545, 2, 0
3, 0, 1, 0, 2, 0, 1, 0, 0, 1, 0, 3, 0, 4, 0, 0, 0, 0, 0, -2, 23.0, 7.0, 1, 0
2, 2, 0, 0, 0, 0, 0, 1, 1, 0, 0, 9, 0, 0, 0, 3, 1, 0, 0, 3, 9.5, 6.94117647059, 2, 0
6, 0, 5, 0, 7, 0, 1, 0, 0, 2, 0, 4, 0, 2, 0, 0, 0, 0, 0, -1, 16.5, 7.5, 2, 0
0, 0, 0, 0, 0, 0, 2, 0, 0, 0, 0, 1, 0, 0, 0, 0, 1, 0, 0, -1, 7.0, 6.25, 1, 0
0, 0, 0, 0, 0, 0, 0, 0, 0, 0, 1, 7, 0, 1, 0, 1, 0, 1, 0, -3, 16.0, 6.92857142857, 1, 0
1, 0, 0, 0, 0, 0, 0, 0, 0, 0, 0, 1, 0, 0, 0, 0, 0, 0, 0, -2, 4.0, 7.66666666667, 1, 0
1, 0, 0, 0, 0, 0, 0, 0, 0, 0, 0, 3, 0, 1, 0, 0, 0, 0, 0, -4, 15.0, 6.35714285714, 1, 0
1, 0, 0, 0, 0, 0, 0, 3, 0, 0, 5, 1, 0, 1, 0, 0, 0, 0, 0, -15, 2.8, 7.66666666667, 5, 0
0, 1, 0, 0, 0, 0, 0, 0, 0, 0, 0, 2, 0, 0, 0, 0, 0, 0, 0, -4, 9.0, 7.85714285714, 1, 0
0, 0, 0, 0, 0, 0, 1, 0, 0, 0, 0, 3, 0, 1, 0, 0, 0, 0, 0, 0, 13.0, 7.54545454545, 1, 0
0, 1, 1, 0, 0, 0, 0, 2, 0, 0, 2, 5, 0, 3, 0, 0, 0, 0, 0, -2, 9.0, 7.6875, 2, 0
1, 1, 0, 0, 0, 0, 0, 0, 0, 0, 0, 1, 0, 0, 0, 0, 0, 0, 0, -3, 4.0, 9.5, 1, 0
2, 0, 0, 1, 0, 1, 0, 1, 0, 0, 1, 1, 1, 3, 0, 0, 0, 0, 0, 0, 18.0, 7.53333333333, 1, 0
1, 0, 0, 0, 0, 0, 1, 2, 0, 0, 2, 4, 0, 7, 0, 0, 1, 0, 0, 2, 6.25, 7.4, 4, 0
1, 0, 2, 0, 0, 0, 2, 0, 0, 0, 0, 6, 0, 1, 0, 0, 0, 0, 0, 2, 15.5, 7.32, 2, 0
4, 0, 1, 0, 0, 0, 2, 1, 0, 0, 0, 8, 0, 0, 0, 0, 0, 0, 0, -2, 24.0, 8.8, 1, 0
0, 0, 0, 0, 0, 0, 0, 0, 0, 0, 0, 2, 0, 0, 0, 0, 0, 0, 0, 0, 4.0, 8.5, 1, 0
1, 0, 0, 0, 1, 0, 0, 0, 0, 0, 0, 6, 0, 1, 1, 0, 0, 0, 0, -4, 13.0, 7.46153846154, 1, 0
0, 0, 0, 0, 0, 0, 0, 1, 0, 0, 0, 2, 0, 1, 0, 0, 0, 0, 1, -4, 5.0, 8.5, 1, 0
2, 0, 0, 0, 0, 0, 0, 0, 0, 0, 0, 2, 1, 0, 0, 0, 0, 0, 0, 0, 9.0, 7.55555555556, 1, 0
1, 0, 0, 1, 1, 0, 0, 0, 0, 0, 0, 4, 0, 1, 0, 0, 0, 0, 0, -2, 8.0, 7.0, 2, 0
0, 0, 0, 0, 0, 0, 0, 0, 0, 0, 0, 2, 0, 1, 0, 0, 0, 0, 0, 0, 4.0, 7.42857142857, 2, 0
1, 0, 0, 0, 0, 0, 0, 1, 0, 0, 0, 8, 0, 2, 0, 1, 0, 0, 1, -2, 19.0, 7.23529411765, 1, 0
0, 0, 0, 0, 1, 0, 0, 0, 0, 0, 0, 2, 0, 0, 0, 0, 0, 0, 0, -2, 5.0, 7.8, 1, 0
1, 0, 0, 1, 0, 0, 0, 0, 0, 0, 0, 5, 0, 1, 0, 1, 0, 0, 0, 3, 11.0, 6.09090909091, 1, 0
1, 1, 0, 1, 1, 0, 0, 1, 0, 0, 0, 4, 0, 1, 0, 0, 0, 0, 0, 0, 5.33333333333, 7.69230769231, 3, 0
1, 0, 2, 0, 0, 0, 2, 0, 0, 0, 0, 1, 0, 1, 0, 0, 0, 0, 0, -4, 13.0, 6.90909090909, 1, 0
2, 0, 0, 0, 0, 0, 1, 0, 0, 0, 0, 3, 0, 1, 0, 0, 1, 0, 0, 0, 10.0, 7.125, 1, 0
4, 0, 1, 0, 0, 0, 0, 0, 0, 0, 1, 4, 0, 3, 1, 1, 1, 0, 0, -2, 11.5, 6.42857142857, 2, 0
0, 0, 0, 1, 0, 0, 0, 0, 0, 0, 0, 2, 0, 0, 0, 0, 0, 0, 0, 0, 7.0, 7.85714285714, 1, 0
1, 0, 0, 1, 0, 0, 1, 0, 0, 0, 0, 10, 0, 0, 1, 0, 0, 0, 0, -2, 24.0, 7.40909090909, 1, 0
0, 1, 1, 1, 0, 0, 0, 0, 0, 0, 0, 4, 0, 0, 0, 0, 0, 0, 0, 0, 15.0, 6.57142857143, 1, 0
1, 0, 0, 0, 1, 0, 0, 0, 0, 0, 0, 5, 0, 1, 0, 0, 1, 0, 0, 1, 4.66666666667, 6.90909090909, 3, 0
0, 0, 0, 0, 0, 0, 0, 0, 0, 0, 0, 2, 0, 0, 0, 0, 0, 0, 0, 0, 5.0, 8.5, 1, 0
0, 1, 0, 1, 1, 0, 0, 1, 0, 0, 0, 5, 0, 0, 0, 1, 0, 0, 1, 0, 11.0, 7.8, 1, 0
0, 0, 0, 0, 0, 0, 0, 0, 0, 0, 0, 1, 0, 0, 1, 0, 0, 0, 0, 0, 5.0, 8.5, 1, 0
2, 0, 0, 2, 1, 0, 0, 0, 0, 0, 0, 4, 0, 3, 0, 1, 0, 0, 0, -3, 13.5, 7.29166666667, 2, 0
0, 0, 1, 0, 0, 0, 0, 0, 0, 0, 0, 2, 0, 1, 0, 0, 0, 0, 0, 0, 6.0, 6.4, 1, 0
3, 0, 3, 2, 0, 0, 0, 0, 0, 0, 0, 3, 1, 1, 0, 0, 0, 0, 0, 3, 21.0, 6.95, 1, 0
1, 0, 1, 1, 1, 0, 0, 0, 0, 0, 0, 6, 0, 2, 0, 0, 1, 0, 0, -5, 11.5, 8.19047619048, 2, 0
3, 0, 0, 2, 0, 0, 0, 0, 0, 0, 0, 2, 0, 5, 0, 0, 0, 0, 0, -1, 25.0, 7.08695652174, 1, 0
0, 0, 0, 0, 0, 0, 0, 0, 0, 0, 0, 0, 1, 0, 0, 0, 0, 0, 0, 0, 2.0, 10.5, 1, 0
1, 1, 0, 1, 1, 0, 0, 1, 0, 0, 0, 4, 0, 1, 0, 1, 0, 1, 0, -3, 7.5, 7.38461538462, 2, 0
2, 1, 0, 0, 0, 0, 0, 0, 0, 0, 0, 5, 2, 1, 0, 0, 2, 0, 0, 4, 16.0, 6.73333333333, 1, 0
3, 0, 0, 0, 0, 0, 0, 1, 0, 0, 1, 3, 1, 1, 0, 0, 0, 0, 0, 1, 5.33333333333, 6.85714285714, 3, 0
1, 0, 0, 0, 2, 0, 0, 1, 2, 0, 0, 3, 0, 1, 0, 0, 0, 0, 0, 0, 11.0, 7.8, 1, 0
4, 0, 0, 0, 1, 0, 0, 0, 0, 0, 0, 7, 1, 2, 0, 0, 0, 0, 0, 1, 15.0, 7.14814814815, 2, 0
1, 0, 1, 0, 0, 0, 0, 0, 0, 0, 0, 2, 0, 0, 0, 0, 0, 0, 0, 0, 7.0, 8.71428571429, 1, 0
1, 0, 0, 0, 0, 0, 0, 0, 0, 0, 0, 1, 0, 0, 0, 0, 0, 0, 0, 0, 3.0, 10.6666666667, 1, 0
1, 0, 0, 1, 0, 0, 0, 0, 0, 0, 0, 2, 0, 2, 0, 0, 0, 0, 0, 0, 12.0, 7.58333333333, 1, 0
1, 0, 0, 0, 1, 0, 0, 2, 0, 0, 2, 4, 0, 0, 0, 0, 0, 0, 0, 3, 4.0, 9.9, 3, 0
2, 0, 0, 1, 1, 1, 0, 0, 0, 0, 0, 1, 1, 1, 0, 0, 0, 0, 0, 4, 8.0, 7.78571428571, 2, 0
0, 0, 0, 0, 0, 0, 0, 1, 0, 0, 1, 4, 2, 2, 0, 0, 1, 0, 0, -2, 10.0, 7.89473684211, 2, 0
0, 0, 0, 0, 0, 0, 0, 0, 0, 0, 0, 2, 0, 0, 0, 0, 0, 0, 0, -3, 5.0, 7.4, 1, 0
2, 1, 2, 0, 2, 0, 0, 0, 0, 0, 0, 8, 4, 4, 0, 2, 0, 0, 0, 3, 30.0, 7.35714285714, 1, 0
0, 0, 0, 0, 2, 0, 0, 0, 0, 0, 0, 2, 2, 5, 0, 0, 0, 0, 0, 3, 11.5, 7.15, 2, 0
0, 0, 0, 0, 0, 0, 0, 1, 0, 0, 1, 1, 1, 0, 0, 0, 0, 0, 0, 0, 5.0, 7.33333333333, 2, 0
1, 0, 1, 0, 0, 0, 0, 0, 0, 0, 1, 7, 0, 1, 0, 0, 0, 0, 0, 3, 9.0, 8.41176470588, 2, 0
0, 0, 2, 0, 0, 0, 1, 1, 0, 0, 1, 8, 0, 2, 0, 0, 0, 0, 0, -1, 8.0, 8.75, 3, 0
0, 0, 0, 0, 0, 0, 1, 0, 0, 0, 0, 4, 0, 0, 0, 0, 0, 0, 0, -1, 9.0, 8.71428571429, 1, 0
0, 0, 0, 0, 0, 0, 0, 0, 0, 0, 0, 1, 0, 0, 0, 0, 0, 0, 0, 0, 1.0, 11.0, 1, 0
2, 1, 0, 2, 2, 0, 0, 0, 0, 0, 0, 10, 1, 0, 0, 3, 0, 0, 0, 6, 10.0, 7.14285714286, 3, 0
1, 0, 1, 2, 1, 0, 0, 1, 0, 0, 1, 8, 0, 3, 0, 0, 0, 0, 0, -3, 14.5, 7.34615384615, 2, 0
1, 0, 0, 1, 0, 0, 0, 0, 0, 0, 1, 3, 0, 0, 0, 0, 0, 0, 0, 3, 9.0, 7.0, 2, 0
0, 1, 0, 0, 0, 0, 2, 1, 0, 0, 1, 7, 3, 0, 2, 0, 1, 0, 0, 3, 6.75, 8.05, 4, 0
1, 0, 0, 0, 0, 0, 0, 0, 0, 0, 0, 4, 0, 1, 0, 0, 0, 0, 0, 0, 17.0, 6.625, 1, 0
0, 0, 0, 0, 0, 0, 0, 0, 1, 0, 0, 1, 0, 0, 0, 0, 0, 0, 0, -3, 3.0, 9.5, 1, 0
4, 0, 2, 1, 0, 0, 0, 0, 1, 0, 0, 9, 2, 1, 1, 0, 0, 0, 0, 1, 10.3333333333, 7.2, 3, 0
1, 1, 0, 0, 1, 0, 0, 0, 0, 0, 0, 2, 0, 1, 0, 0, 0, 0, 0, 0, 8.0, 7.71428571429, 1, 0
0, 0, 0, 1, 0, 0, 1, 0, 0, 0, 0, 3, 0, 1, 0, 0, 0, 0, 0, 0, 13.0, 7.75, 1, 0
0, 0, 0, 0, 0, 1, 0, 0, 0, 0, 0, 6, 4, 3, 0, 0, 0, 0, 0, -1, 6.25, 7.86363636364, 4, 0
2, 2, 0, 0, 0, 0, 0, 0, 0, 0, 0, 5, 1, 3, 0, 1, 0, 0, 0, -4, 12.0, 7.71428571429, 2, 0
0, 0, 0, 0, 0, 0, 0, 0, 0, 0, 0, 1, 1, 0, 0, 0, 0, 0, 0, 0, 3.0, 6.66666666667, 1, 0
0, 0, 0, 0, 0, 0, 0, 0, 0, 0, 0, 5, 0, 0, 1, 0, 0, 0, 0, -3, 9.0, 7.0, 1, 0
2, 2, 0, 1, 0, 0, 0, 0, 0, 0, 0, 4, 0, 1, 0, 2, 0, 0, 0, 1, 10.0, 6.0, 1, 0
3, 0, 0, 2, 0, 0, 0, 1, 0, 0, 3, 6, 0, 1, 0, 0, 0, 0, 0, -4, 7.0, 7.33333333333, 3, 0
2, 0, 0, 0, 0, 0, 0, 1, 0, 0, 1, 1, 0, 0, 0, 0, 0, 0, 0, -3, 6.0, 7.8, 1, 0
1, 0, 0, 0, 1, 0, 0, 0, 1, 0, 0, 3, 1, 1, 0, 1, 0, 0, 0, -2, 12.0, 9.0, 1, 0
0, 0, 0, 0, 0, 0, 0, 0, 0, 0, 0, 4, 0, 3, 0, 0, 1, 0, 0, 2, 17.0, 7.4375, 1, 0
0, 0, 0, 0, 0, 0, 0, 0, 0, 0, 0, 1, 0, 0, 0, 0, 0, 0, 0, 4, 4.0, 8.75, 1, 0
2, 0, 0, 0, 2, 0, 2, 0, 0, 0, 0, 3, 0, 1, 0, 1, 0, 0, 0, 3, 16.0, 7.28571428571, 1, 0
0, 0, 1, 1, 0, 0, 0, 0, 0, 0, 0, 1, 0, 1, 1, 0, 0, 0, 0, -1, 13.0, 6.91666666667, 1, 0
3, 1, 0, 0, 0, 0, 0, 0, 0, 0, 0, 8, 0, 1, 1, 0, 0, 0, 0, 3, 7.25, 6.69230769231, 4, 0
2, 0, 0, 1, 1, 0, 0, 0, 0, 0, 0, 4, 0, 3, 0, 0, 1, 0, 0, -2, 18.0, 5.875, 1, 0
0, 0, 0, 0, 0, 0, 2, 0, 0, 0, 0, 5, 0, 0, 0, 2, 0, 0, 0, 2, 3.75, 7.6, 4, 0
0, 0, 0, 0, 0, 0, 0, 0, 0, 0, 0, 6, 0, 0, 0, 0, 0, 0, 0, -3, 4.0, 7.0, 3, 0
3, 0, 0, 1, 0, 0, 0, 0, 0, 0, 0, 3, 0, 1, 0, 0, 0, 0, 0, -1, 10.0, 6.75, 1, 0
2, 0, 1, 0, 0, 0, 0, 0, 0, 0, 0, 2, 0, 1, 0, 0, 0, 0, 0, 0, 4.5, 8.28571428571, 2, 0
0, 0, 0, 2, 2, 0, 0, 0, 0, 0, 0, 4, 4, 1, 0, 0, 0, 0, 0, 0, 21.0, 7.38888888889, 1, 0
2, 0, 0, 1, 0, 0, 0, 0, 0, 0, 0, 5, 0, 1, 0, 0, 0, 0, 0, -3, 6.5, 7.72727272727, 2, 0
0, 2, 0, 1, 1, 0, 0, 0, 0, 0, 0, 5, 0, 1, 0, 1, 1, 0, 0, 1, 13.0, 7.54545454545, 1, 0
1, 0, 0, 0, 1, 0, 0, 0, 0, 0, 0, 1, 0, 0, 0, 0, 0, 0, 0, 1, 5.0, 8.0, 1, 0
2, 0, 1, 0, 1, 0, 2, 0, 0, 0, 0, 4, 0, 2, 0, 0, 0, 0, 0, -4, 11.0, 6.47058823529, 2, 0
0, 0, 0, 0, 0, 0, 0, 0, 0, 0, 0, 1, 1, 3, 0, 0, 0, 0, 0, 1, 4.0, 7.71428571429, 2, 0
1, 0, 0, 0, 1, 0, 0, 0, 0, 0, 0, 5, 0, 1, 1, 0, 0, 0, 0, 0, 5.66666666667, 7.86666666667, 3, 0
0, 0, 0, 0, 0, 0, 0, 0, 0, 0, 0, 5, 0, 5, 0, 1, 0, 0, 0, -3, 8.0, 7.52380952381, 3, 0
2, 0, 0, 1, 1, 0, 0, 0, 0, 0, 0, 4, 0, 1, 0, 0, 0, 0, 0, 0, 14.0, 6.61538461538, 1, 0
2, 0, 0, 0, 0, 0, 0, 0, 0, 0, 0, 4, 0, 0, 0, 0, 0, 0, 0, -2, 8.0, 7.25, 1, 0
2, 0, 0, 0, 0, 0, 0, 1, 0, 0, 1, 1, 0, 0, 0, 0, 0, 0, 0, -2, 7.0, 7.0, 1, 0
0, 0, 1, 0, 0, 0, 0, 0, 0, 0, 0, 2, 1, 3, 0, 0, 0, 0, 0, -3, 6.5, 7.63636363636, 2, 0
1, 0, 3, 0, 0, 0, 2, 0, 0, 0, 2, 0, 0, 6, 0, 1, 0, 0, 0, 1, 11.0, 6.92307692308, 3, 0
0, 0, 0, 0, 1, 0, 0, 0, 0, 0, 0, 2, 0, 1, 0, 0, 0, 0, 0, -1, 8.0, 7.375, 1, 0
3, 1, 0, 0, 2, 0, 0, 1, 0, 1, 0, 8, 0, 1, 1, 2, 0, 1, 0, 2, 29.0, 7.0, 1, 0
3, 0, 0, 0, 1, 0, 0, 0, 0, 0, 0, 6, 0, 0, 0, 0, 0, 0, 0, 0, 14.0, 7.07692307692, 1, 0
0, 0, 0, 0, 0, 0, 0, 1, 1, 0, 1, 4, 0, 0, 0, 0, 0, 0, 0, 0, 7.0, 8.66666666667, 1, 0
0, 1, 0, 0, 0, 0, 0, 0, 0, 0, 0, 3, 0, 1, 0, 0, 0, 0, 0, -1, 5.5, 8.11111111111, 2, 0
3, 0, 1, 1, 0, 0, 0, 0, 0, 0, 0, 4, 0, 3, 0, 0, 0, 0, 0, -4, 11.5, 7.61904761905, 2, 0
2, 0, 0, 1, 0, 0, 1, 0, 0, 0, 0, 3, 0, 5, 0, 0, 0, 0, 0, 3, 19.0, 8.125, 1, 0
0, 1, 0, 0, 0, 0, 0, 0, 0, 0, 0, 1, 0, 0, 1, 0, 0, 0, 0, 0, 6.0, 9.8, 1, 0
0, 0, 0, 0, 0, 0, 0, 1, 0, 0, 1, 3, 1, 1, 0, 0, 0, 0, 0, 0, 5.0, 7.25, 2, 0
1, 0, 0, 0, 0, 0, 0, 0, 0, 0, 0, 2, 0, 0, 0, 0, 0, 0, 0, 0, 5.0, 7.4, 1, 0
1, 1, 0, 0, 0, 0, 0, 0, 0, 0, 0, 5, 0, 3, 1, 1, 0, 0, 0, 1, 8.0, 7.33333333333, 2, 0
0, 0, 0, 0, 0, 0, 0, 0, 0, 0, 0, 3, 1, 0, 0, 0, 0, 0, 0, -3, 3.5, 6.81818181818, 4, 0
1, 0, 1, 0, 1, 0, 0, 0, 1, 0, 0, 3, 0, 0, 0, 0, 0, 0, 0, 1, 10.0, 8.22222222222, 1, 0
2, 0, 0, 0, 0, 0, 1, 0, 0, 0, 0, 3, 0, 0, 0, 0, 0, 0, 0, 2, 13.0, 9.0, 1, 0
0, 0, 0, 0, 0, 0, 1, 0, 0, 0, 0, 3, 0, 1, 0, 0, 0, 0, 0, -2, 8.0, 8.42857142857, 1, 0
3, 0, 0, 0, 0, 1, 0, 0, 0, 0, 1, 2, 0, 2, 0, 0, 0, 0, 0, 4, 7.5, 6.66666666667, 2, 0
2, 1, 1, 0, 1, 0, 0, 0, 0, 0, 0, 7, 1, 1, 0, 2, 0, 0, 0, 7, 5.25, 7.61111111111, 4, 0
3, 0, 2, 1, 0, 2, 0, 0, 0, 0, 0, 4, 0, 0, 0, 0, 0, 0, 0, -1, 8.0, 7.2380952381, 3, 0
1, 0, 0, 0, 0, 0, 0, 0, 0, 0, 1, 3, 0, 0, 0, 0, 1, 0, 0, 5, 3.0, 8.6, 2, 0
1, 0, 0, 0, 0, 0, 0, 0, 0, 0, 0, 5, 1, 1, 0, 0, 0, 0, 0, 1, 8.5, 7.4375, 2, 0
1, 0, 0, 0, 0, 0, 0, 0, 0, 0, 0, 2, 0, 0, 0, 0, 0, 0, 0, 0, 5.0, 7.4, 1, 0
2, 1, 0, 0, 1, 0, 0, 1, 1, 0, 0, 2, 0, 2, 0, 0, 0, 0, 0, -5, 13.0, 8.5, 1, 0
1, 2, 0, 0, 0, 0, 0, 0, 0, 0, 0, 6, 0, 0, 1, 2, 1, 0, 0, 1, 5.33333333333, 8.14285714286, 3, 0
2, 2, 1, 1, 0, 0, 1, 1, 0, 0, 1, 6, 0, 2, 1, 0, 0, 0, 0, -5, 12.5, 7.31818181818, 2, 0
1, 0, 0, 0, 0, 0, 0, 0, 0, 0, 0, 2, 0, 0, 0, 0, 0, 0, 0, -3, 4.0, 10.0, 1, 0
1, 0, 0, 0, 0, 0, 0, 0, 0, 0, 0, 0, 1, 1, 1, 0, 0, 0, 0, 0, 6.0, 7.4, 1, 0
3, 0, 0, 0, 1, 0, 0, 0, 0, 0, 0, 6, 0, 3, 0, 1, 0, 0, 0, 1, 8.5, 7.6, 2, 0
1, 0, 1, 0, 0, 0, 1, 0, 0, 0, 0, 4, 0, 0, 1, 0, 1, 0, 0, 1, 9.5, 6.8125, 2, 0
2, 0, 0, 0, 0, 0, 0, 0, 0, 0, 0, 2, 0, 1, 0, 1, 0, 0, 0, -4, 6.0, 7.7, 2, 0
1, 0, 1, 0, 0, 0, 0, 0, 0, 0, 0, 2, 0, 1, 0, 0, 0, 0, 0, -2, 6.5, 7.6, 2, 0
1, 0, 0, 0, 0, 0, 0, 0, 0, 0, 0, 6, 0, 1, 0, 0, 0, 0, 0, -1, 22.0, 7.71428571429, 1, 0
2, 0, 0, 1, 0, 1, 3, 0, 0, 0, 0, 5, 0, 2, 0, 1, 0, 0, 0, 4, 19.0, 6.125, 1, 0
0, 0, 0, 0, 0, 0, 0, 0, 0, 0, 0, 1, 0, 1, 0, 0, 0, 0, 0, -3, 3.0, 9.0, 1, 0
0, 0, 0, 0, 1, 0, 1, 0, 0, 0, 0, 4, 1, 0, 0, 0, 0, 0, 0, -1, 11.0, 8.4, 1, 0
3, 0, 4, 1, 3, 0, 0, 0, 0, 0, 0, 6, 0, 1, 0, 1, 0, 0, 0, 3, 14.5, 7.18518518519, 2, 0
1, 0, 0, 1, 0, 0, 1, 0, 0, 0, 0, 5, 0, 2, 2, 0, 1, 0, 0, -3, 12.5, 6.86363636364, 2, 0
3, 0, 0, 1, 0, 0, 1, 1, 0, 0, 0, 7, 0, 1, 0, 0, 0, 0, 1, -1, 24.0, 6.52173913043, 1, 0
2, 1, 0, 1, 2, 0, 0, 0, 0, 0, 0, 3, 0, 2, 0, 0, 0, 0, 0, 1, 12.5, 8.17391304348, 2, 0
0, 0, 0, 0, 0, 0, 0, 0, 0, 0, 0, 0, 1, 2, 1, 1, 0, 0, 0, 1, 13.0, 7.5, 1, 0
1, 0, 0, 1, 0, 1, 0, 0, 0, 0, 0, 5, 0, 0, 0, 0, 1, 0, 0, -3, 11.5, 7.31818181818, 2, 0
2, 0, 0, 0, 1, 0, 0, 0, 0, 0, 0, 1, 2, 3, 0, 0, 0, 0, 0, -2, 9.5, 7.41176470588, 2, 0
1, 0, 0, 0, 0, 0, 0, 0, 0, 0, 0, 2, 0, 1, 0, 0, 0, 0, 0, 0, 6.0, 7.5, 1, 0
1, 0, 0, 0, 0, 0, 0, 0, 0, 0, 0, 4, 0, 0, 0, 0, 0, 0, 0, 0, 8.0, 6.71428571429, 1, 0
0, 0, 0, 0, 0, 0, 1, 0, 0, 0, 0, 2, 0, 1, 0, 0, 0, 0, 0, -6, 6.0, 9.6, 1, 0
0, 0, 0, 0, 0, 0, 0, 0, 0, 0, 0, 4, 0, 1, 0, 0, 0, 0, 0, 0, 6.0, 8.66666666667, 1, 0
0, 0, 1, 0, 0, 0, 0, 0, 1, 0, 0, 7, 0, 1, 0, 0, 0, 0, 0, 1, 15.0, 7.93333333333, 1, 0
0, 0, 0, 0, 0, 1, 1, 0, 0, 0, 0, 2, 0, 1, 1, 0, 0, 0, 0, -2, 16.0, 7.6, 1, 0
3, 0, 0, 1, 0, 0, 2, 0, 0, 0, 0, 11, 0, 3, 1, 0, 0, 0, 0, -1, 8.66666666667, 7.0, 3, 0
2, 0, 1, 1, 1, 0, 1, 0, 0, 0, 0, 7, 1, 2, 0, 1, 2, 0, 0, 3, 21.0, 7.31578947368, 1, 0
0, 0, 0, 0, 0, 0, 0, 0, 0, 0, 0, 4, 0, 0, 0, 0, 0, 0, 0, -2, 8.0, 8.14285714286, 1, 0
1, 0, 0, 0, 0, 0, 4, 0, 0, 0, 0, 5, 0, 2, 0, 0, 0, 0, 0, 3, 20.0, 7.06666666667, 1, 0
1, 0, 0, 1, 0, 1, 0, 0, 0, 0, 0, 2, 1, 0, 0, 0, 0, 0, 0, -2, 8.0, 7.5, 1, 0
0, 0, 0, 0, 0, 0, 0, 0, 0, 0, 0, 3, 0, 0, 0, 0, 0, 0, 0, 0, 5.0, 8.33333333333, 1, 0
2, 0, 0, 0, 1, 0, 1, 0, 0, 0, 0, 4, 0, 0, 1, 0, 0, 0, 0, 0, 17.0, 7.625, 1, 0
1, 1, 1, 0, 0, 0, 1, 0, 0, 0, 0, 5, 0, 0, 1, 0, 0, 0, 0, 1, 9.0, 8.1875, 2, 0
2, 0, 3, 0, 0, 0, 0, 1, 0, 0, 1, 4, 0, 1, 0, 0, 1, 0, 0, -4, 7.33333333333, 8.16666666667, 3, 0
0, 0, 0, 0, 0, 0, 0, 1, 0, 0, 1, 2, 0, 0, 0, 0, 0, 0, 0, 3, 4.5, 6.375, 2, 0
2, 0, 1, 1, 0, 0, 0, 1, 0, 0, 1, 6, 0, 1, 0, 1, 0, 0, 0, -2, 7.5, 6.15384615385, 2, 0
1, 0, 0, 0, 0, 1, 0, 0, 0, 0, 1, 1, 0, 3, 1, 1, 0, 0, 0, 0, 7.0, 6.61538461538, 2, 0
0, 0, 0, 0, 0, 0, 0, 0, 0, 0, 3, 2, 0, 0, 0, 0, 0, 0, 0, 0, 3.5, 8.75, 2, 0
4, 0, 0, 0, 0, 0, 1, 0, 0, 0, 0, 10, 1, 3, 1, 0, 1, 0, 0, -2, 7.5, 7.5, 4, 0
0, 0, 0, 0, 0, 0, 1, 0, 0, 0, 0, 5, 0, 1, 0, 0, 1, 0, 0, -2, 17.0, 6.3125, 1, 0
1, 0, 1, 2, 0, 0, 0, 3, 0, 1, 2, 8, 2, 2, 0, 0, 4, 1, 0, 5, 6.5, 6.91304347826, 4, 0
2, 0, 0, 0, 1, 0, 0, 0, 0, 0, 0, 5, 1, 0, 0, 0, 0, 0, 0, 0, 4.66666666667, 6.58333333333, 3, 0
1, 0, 0, 0, 0, 0, 2, 0, 0, 0, 0, 8, 0, 0, 0, 0, 0, 0, 0, 2, 7.5, 7.90909090909, 2, 0
1, 1, 0, 0, 1, 0, 0, 1, 0, 0, 1, 8, 0, 1, 0, 0, 1, 0, 0, -3, 8.33333333333, 7.86956521739, 3, 0
1, 0, 0, 0, 0, 0, 0, 0, 0, 0, 0, 3, 1, 0, 1, 0, 1, 0, 0, -1, 6.0, 6.86666666667, 3, 0
0, 1, 1, 0, 0, 0, 0, 0, 0, 0, 0, 3, 0, 0, 0, 0, 0, 0, 0, -1, 12.0, 7.0, 1, 0
0, 0, 2, 0, 0, 0, 0, 0, 0, 0, 0, 5, 0, 1, 0, 0, 0, 0, 0, 0, 7.0, 7.23076923077, 2, 0
4, 0, 0, 1, 0, 0, 0, 0, 0, 0, 0, 3, 0, 2, 0, 1, 1, 0, 0, -1, 17.0, 6.0625, 1, 0
1, 0, 0, 0, 0, 0, 0, 0, 0, 0, 0, 2, 0, 1, 1, 0, 0, 0, 0, 3, 8.0, 7.75, 1, 0
2, 1, 0, 0, 0, 0, 1, 0, 0, 1, 0, 6, 0, 1, 0, 0, 0, 0, 0, 0, 8.0, 7.69230769231, 2, 0
2, 0, 0, 1, 0, 0, 0, 0, 0, 0, 0, 3, 1, 1, 0, 0, 0, 0, 0, -1, 7.5, 7.15384615385, 2, 0
0, 0, 0, 0, 0, 0, 0, 0, 0, 0, 0, 9, 1, 0, 0, 0, 0, 0, 0, 0, 12.0, 7.58333333333, 1, 0
2, 0, 0, 0, 1, 0, 0, 1, 0, 0, 2, 3, 0, 0, 0, 0, 1, 0, 0, 0, 6.0, 6.6, 2, 0
0, 0, 0, 1, 0, 0, 0, 0, 0, 0, 0, 2, 0, 0, 0, 0, 0, 0, 0, -7, 6.0, 9.0, 1, 0
4, 0, 1, 0, 0, 0, 0, 0, 0, 0, 0, 7, 0, 1, 0, 1, 0, 0, 0, 6, 8.66666666667, 7.5, 3, 0
1, 0, 1, 0, 0, 0, 1, 0, 0, 0, 0, 1, 0, 1, 0, 0, 0, 0, 0, -2, 11.0, 7.22222222222, 1, 0
0, 0, 0, 0, 0, 0, 0, 0, 0, 0, 0, 1, 0, 0, 0, 0, 0, 0, 0, -1, 6.0, 7.16666666667, 1, 0
1, 0, 0, 0, 0, 0, 0, 0, 0, 0, 0, 2, 0, 0, 0, 0, 0, 0, 0, -2, 8.0, 8.85714285714, 1, 0
2, 0, 1, 1, 0, 0, 0, 1, 0, 0, 0, 10, 0, 4, 0, 0, 0, 0, 0, 0, 27.0, 7.75, 1, 0
2, 1, 0, 1, 0, 0, 0, 0, 0, 0, 0, 3, 1, 4, 0, 0, 0, 0, 0, 5, 9.66666666667, 6.92, 3, 4
1, 0, 1, 0, 2, 0, 0, 0, 0, 0, 0, 6, 0, 1, 0, 0, 0, 0, 0, 0, 11.5, 7.55555555556, 2, 4
2, 0, 1, 0, 1, 1, 0, 0, 0, 0, 0, 6, 0, 0, 0, 0, 0, 0, 0, 2, 8.33333333333, 7.54545454545, 3, 4
0, 0, 0, 0, 0, 0, 0, 0, 0, 0, 0, 2, 0, 0, 0, 0, 0, 0, 0, 0, 3.0, 8.33333333333, 1, 4
0, 0, 1, 0, 0, 0, 0, 0, 0, 0, 0, 5, 0, 0, 1, 0, 0, 0, 0, -1, 6.5, 6.54545454545, 2, 4
0, 1, 0, 0, 0, 0, 0, 1, 1, 0, 0, 4, 2, 0, 1, 0, 1, 0, 0, 3, 9.5, 9.1875, 2, 4
2, 0, 1, 0, 2, 0, 0, 1, 0, 0, 1, 4, 0, 0, 0, 0, 0, 0, 0, 3, 7.5, 6.46153846154, 2, 4
0, 0, 0, 0, 0, 0, 0, 0, 0, 0, 0, 3, 0, 0, 0, 0, 0, 0, 0, 0, 5.0, 9.33333333333, 1, 4
0, 2, 1, 0, 0, 0, 1, 0, 0, 0, 0, 7, 2, 1, 0, 0, 0, 0, 0, 12, 9.66666666667, 7.53846153846, 3, 4
1, 1, 1, 0, 0, 1, 0, 0, 0, 0, 0, 3, 0, 2, 0, 0, 0, 0, 0, 1, 15.0, 7.6, 1, 4
1, 0, 1, 1, 0, 0, 0, 1, 1, 0, 0, 2, 0, 2, 0, 2, 0, 0, 0, 0, 11.0, 6.16666666667, 1, 4
0, 1, 0, 0, 0, 0, 1, 0, 0, 0, 0, 9, 2, 0, 0, 1, 2, 0, 0, 3, 4.5, 8.15384615385, 4, 4
2, 1, 0, 0, 0, 0, 0, 0, 0, 1, 1, 7, 0, 0, 0, 0, 0, 0, 0, 5, 10.0, 7.33333333333, 2, 4
2, 1, 0, 0, 0, 0, 0, 0, 1, 0, 0, 7, 0, 0, 0, 1, 0, 0, 0, 2, 23.0, 7.86956521739, 1, 4
0, 0, 0, 0, 0, 0, 1, 0, 0, 0, 0, 5, 0, 0, 1, 0, 0, 0, 0, 0, 19.0, 7.41176470588, 1, 4
0, 0, 0, 0, 0, 0, 0, 0, 0, 0, 0, 2, 0, 0, 0, 0, 0, 0, 0, 2, 2.0, 9.5, 1, 4
1, 0, 0, 0, 0, 0, 1, 1, 0, 2, 1, 9, 0, 1, 1, 0, 0, 0, 0, 0, 11.0, 10.1428571429, 2, 4
1, 0, 0, 0, 0, 0, 1, 0, 0, 0, 0, 7, 0, 0, 1, 0, 0, 0, 0, 0, 8.0, 7.26315789474, 3, 4
1, 2, 0, 0, 1, 1, 0, 0, 0, 0, 0, 3, 0, 1, 0, 0, 0, 0, 0, 0, 17.0, 7.21428571429, 1, 4
1, 0, 1, 1, 0, 0, 0, 0, 0, 0, 0, 2, 0, 1, 0, 0, 0, 0, 0, 3, 8.0, 8.0, 2, 4
0, 0, 0, 0, 0, 0, 0, 0, 0, 0, 0, 3, 0, 0, 0, 0, 0, 0, 0, 0, 3.0, 9.66666666667, 1, 4
1, 0, 1, 0, 0, 1, 1, 0, 0, 0, 1, 5, 0, 1, 1, 0, 0, 0, 0, 6, 14.0, 7.27272727273, 2, 4
2, 0, 0, 0, 0, 0, 0, 1, 0, 0, 1, 7, 0, 3, 0, 1, 0, 0, 0, -5, 13.0, 7.41666666667, 2, 4
0, 0, 0, 0, 0, 0, 0, 1, 0, 0, 1, 3, 0, 0, 0, 0, 0, 0, 0, 2, 4.0, 9.16666666667, 2, 4
2, 0, 1, 0, 1, 0, 1, 0, 0, 0, 1, 7, 3, 1, 0, 0, 1, 0, 0, -1, 9.33333333333, 7.78260869565, 3, 4
0, 0, 0, 1, 0, 0, 0, 0, 0, 0, 0, 3, 1, 1, 0, 1, 0, 0, 0, 2, 5.5, 8.7, 2, 4
2, 0, 0, 0, 2, 0, 0, 0, 0, 0, 0, 12, 0, 2, 0, 0, 0, 0, 0, 1, 7.33333333333, 7.15, 3, 4
0, 0, 0, 0, 0, 0, 0, 0, 0, 0, 0, 1, 0, 0, 0, 0, 0, 0, 0, 3, 3.0, 9.33333333333, 1, 4
0, 0, 1, 0, 0, 0, 1, 0, 0, 0, 0, 2, 0, 2, 0, 0, 0, 0, 0, 0, 11.0, 8.0, 1, 4
2, 0, 1, 0, 0, 0, 0, 0, 0, 0, 0, 6, 0, 0, 1, 1, 0, 0, 0, 4, 7.5, 6.71428571429, 2, 4
0, 0, 0, 2, 0, 0, 0, 0, 0, 0, 0, 7, 0, 2, 0, 0, 0, 0, 0, 4, 14.0, 7.53846153846, 1, 4
1, 0, 0, 0, 0, 0, 0, 3, 2, 0, 0, 5, 2, 0, 0, 0, 0, 0, 0, 1, 5.66666666667, 7.63636363636, 3, 4
0, 0, 0, 1, 0, 1, 0, 1, 0, 0, 2, 3, 3, 0, 0, 0, 0, 0, 0, 3, 5.66666666667, 6.71428571429, 3, 4
0, 1, 0, 0, 0, 0, 0, 0, 0, 0, 0, 1, 0, 0, 0, 0, 0, 0, 0, 2, 4.0, 8.66666666667, 1, 4
0, 0, 1, 0, 0, 0, 0, 0, 0, 0, 0, 2, 0, 1, 0, 1, 0, 0, 0, 0, 5.0, 8.375, 2, 4
1, 1, 1, 0, 0, 0, 1, 1, 0, 0, 1, 8, 0, 3, 0, 1, 0, 0, 0, 11, 7.0, 7.94736842105, 4, 4
1, 3, 1, 0, 1, 0, 0, 0, 0, 0, 0, 4, 0, 1, 0, 0, 0, 0, 0, 3, 8.5, 7.69230769231, 2, 4
1, 0, 0, 0, 1, 0, 1, 0, 0, 0, 0, 4, 0, 0, 0, 0, 0, 0, 0, 0, 8.5, 7.28571428571, 2, 4
0, 0, 0, 0, 0, 0, 0, 0, 0, 2, 0, 7, 1, 0, 0, 0, 3, 0, 0, 3, 7.0, 7.09090909091, 2, 4
1, 0, 0, 0, 0, 0, 0, 0, 0, 0, 0, 3, 3, 1, 0, 0, 2, 0, 0, -1, 18.0, 7.25, 1, 4
2, 0, 0, 0, 1, 0, 1, 0, 1, 0, 0, 6, 0, 2, 1, 0, 0, 0, 0, 0, 21.0, 7.61111111111, 1, 4
0, 0, 1, 0, 0, 0, 0, 0, 0, 0, 0, 0, 0, 0, 0, 0, 0, 0, 0, 0, 3.0, 8.5, 1, 4
0, 0, 1, 0, 0, 0, 0, 0, 0, 0, 0, 2, 2, 0, 1, 0, 0, 0, 0, 3, 4.66666666667, 8.88888888889, 3, 4
2, 0, 0, 1, 1, 0, 1, 0, 0, 0, 0, 5, 2, 0, 0, 0, 0, 1, 0, 4, 15.0, 7.5, 1, 4
2, 0, 0, 0, 0, 0, 0, 0, 0, 0, 0, 4, 0, 0, 1, 0, 0, 0, 0, -3, 6.66666666667, 8.23529411765, 3, 4
0, 0, 0, 0, 0, 0, 0, 0, 0, 0, 0, 3, 0, 0, 0, 0, 0, 0, 0, 5, 4.0, 8.85714285714, 2, 4
0, 0, 0, 0, 0, 0, 0, 0, 0, 0, 0, 6, 1, 1, 0, 0, 0, 0, 0, -2, 13.0, 7.81818181818, 1, 4
0, 0, 1, 0, 0, 0, 0, 0, 0, 0, 0, 1, 0, 1, 0, 1, 0, 0, 0, 2, 8.0, 7.14285714286, 1, 4
2, 1, 1, 0, 0, 0, 0, 1, 1, 0, 0, 10, 0, 2, 0, 0, 0, 1, 0, 6, 8.33333333333, 7.3125, 3, 4
0, 0, 0, 0, 0, 0, 1, 0, 0, 0, 0, 3, 0, 1, 0, 0, 0, 0, 0, 0, 11.0, 7.0, 1, 4
1, 0, 0, 0, 0, 1, 1, 0, 0, 0, 0, 3, 0, 0, 0, 0, 0, 0, 0, 0, 5.0, 9.16666666667, 2, 4
1, 0, 0, 0, 0, 0, 1, 0, 0, 0, 0, 3, 0, 1, 0, 0, 0, 0, 0, 1, 14.0, 6.83333333333, 1, 4
0, 1, 0, 0, 0, 0, 0, 0, 0, 0, 0, 2, 0, 0, 0, 0, 0, 0, 0, 2, 4.0, 9.0, 1, 4
3, 3, 1, 1, 0, 0, 0, 0, 0, 0, 0, 7, 0, 1, 0, 2, 1, 0, 0, 16, 8.33333333333, 7.0, 3, 4
2, 0, 0, 0, 0, 0, 0, 0, 0, 0, 0, 5, 0, 2, 0, 0, 0, 0, 0, 0, 13.0, 8.84615384615, 1, 4
0, 1, 0, 0, 0, 0, 0, 0, 0, 0, 0, 4, 0, 0, 0, 0, 2, 1, 0, 5, 3.33333333333, 8.66666666667, 3, 4
1, 0, 1, 1, 0, 0, 0, 0, 0, 0, 0, 5, 0, 1, 0, 1, 1, 0, 0, 6, 13.0, 7.0, 1, 4
0, 0, 0, 0, 0, 0, 0, 0, 0, 0, 0, 2, 0, 0, 0, 0, 0, 0, 0, 2, 2.0, 12.5, 1, 4
0, 2, 0, 0, 0, 0, 1, 1, 0, 2, 0, 7, 0, 0, 0, 0, 0, 0, 0, 3, 21.0, 8.05882352941, 1, 4
1, 1, 0, 0, 0, 0, 0, 0, 0, 0, 0, 8, 0, 1, 0, 0, 0, 0, 0, 2, 6.33333333333, 8.85714285714, 3, 4
1, 0, 1, 0, 1, 0, 0, 0, 1, 0, 0, 6, 0, 1, 1, 0, 0, 0, 0, 2, 10.0, 7.31578947368, 2, 4
4, 1, 0, 1, 0, 2, 1, 0, 0, 0, 0, 7, 1, 0, 0, 0, 0, 0, 0, 3, 14.0, 7.16, 2, 4
1, 1, 0, 1, 0, 0, 1, 0, 0, 0, 0, 5, 1, 0, 0, 1, 0, 0, 0, -1, 16.0, 6.2, 1, 4
0, 0, 0, 0, 0, 0, 3, 0, 0, 2, 0, 7, 1, 0, 0, 0, 0, 0, 0, 7, 26.0, 8.09523809524, 1, 4
0, 1, 0, 0, 0, 0, 1, 0, 0, 0, 0, 5, 0, 0, 0, 0, 0, 0, 0, 6, 7.0, 7.58333333333, 2, 4
0, 0, 0, 0, 0, 0, 0, 0, 0, 0, 0, 2, 0, 1, 0, 0, 0, 0, 0, 0, 10.0, 8.22222222222, 1, 4
2, 0, 1, 0, 0, 0, 0, 0, 0, 0, 0, 6, 0, 0, 0, 0, 0, 0, 0, 0, 17.0, 7.47058823529, 1, 4
0, 0, 0, 0, 0, 0, 0, 0, 1, 0, 0, 2, 0, 0, 0, 0, 0, 0, 0, 3, 4.0, 10.3333333333, 1, 4
0, 0, 1, 0, 0, 0, 0, 0, 0, 0, 0, 6, 0, 0, 0, 0, 0, 0, 0, 3, 3.5, 10.3333333333, 2, 4
0, 1, 0, 0, 0, 0, 0, 0, 0, 0, 0, 2, 0, 1, 0, 0, 0, 0, 0, 3, 4.0, 9.33333333333, 2, 4
3, 2, 1, 0, 0, 1, 1, 1, 0, 0, 0, 4, 1, 4, 0, 1, 0, 0, 0, 2, 15.0, 7.03846153846, 2, 4
0, 0, 0, 2, 1, 0, 1, 0, 0, 0, 0, 3, 0, 2, 0, 0, 0, 0, 0, 0, 7.5, 8.09090909091, 2, 4
0, 0, 0, 0, 0, 1, 1, 0, 0, 0, 0, 3, 0, 2, 0, 1, 0, 0, 0, 0, 10.0, 7.625, 1, 4
1, 1, 0, 0, 0, 0, 0, 0, 0, 0, 0, 4, 0, 1, 0, 1, 0, 0, 0, 3, 8.5, 7.46153846154, 2, 4
2, 0, 0, 0, 1, 0, 0, 0, 0, 0, 1, 2, 0, 1, 0, 0, 0, 0, 0, 0, 5.5, 8.11111111111, 2, 4
0, 0, 0, 0, 0, 0, 0, 0, 0, 0, 0, 3, 0, 0, 0, 0, 0, 0, 0, 0, 3.5, 8.2, 2, 4
1, 0, 0, 0, 0, 0, 0, 0, 0, 0, 0, 2, 0, 2, 0, 0, 2, 0, 0, 3, 8.0, 8.28571428571, 1, 4
2, 1, 0, 0, 0, 0, 0, 1, 0, 1, 0, 6, 0, 1, 0, 0, 0, 1, 0, -1, 19.0, 7.05555555556, 1, 4
1, 0, 1, 0, 1, 0, 1, 1, 0, 0, 1, 5, 2, 2, 0, 0, 0, 0, 0, 5, 6.66666666667, 8.47058823529, 3, 4
0, 0, 0, 0, 0, 0, 0, 0, 0, 0, 0, 9, 1, 0, 0, 0, 0, 0, 0, 4, 7.66666666667, 7.31578947368, 3, 4
2, 1, 0, 0, 0, 0, 3, 0, 0, 1, 0, 10, 2, 0, 0, 0, 2, 0, 0, -3, 23.0, 8.0, 1, 4
0, 0, 0, 0, 1, 0, 0, 0, 0, 0, 0, 3, 0, 2, 0, 0, 0, 0, 0, 0, 10.0, 7.125, 1, 4
0, 1, 0, 0, 0, 0, 0, 0, 0, 0, 0, 1, 0, 0, 0, 0, 0, 0, 0, 0, 4.0, 10.0, 1, 4
0, 0, 0, 0, 0, 0, 2, 0, 0, 0, 0, 3, 1, 4, 0, 0, 0, 0, 0, 6, 4.75, 8.07692307692, 4, 4
1, 0, 1, 0, 0, 0, 0, 0, 0, 0, 0, 5, 1, 2, 0, 0, 0, 0, 0, 3, 13.0, 7.82608695652, 2, 4
2, 0, 0, 1, 0, 0, 1, 0, 0, 0, 0, 2, 0, 2, 0, 0, 3, 0, 0, -3, 8.0, 6.5, 2, 4
0, 1, 0, 0, 0, 0, 0, 0, 0, 0, 0, 3, 0, 1, 0, 0, 1, 0, 0, 0, 12.0, 8.27272727273, 1, 4
2, 0, 2, 0, 1, 0, 1, 0, 0, 0, 0, 5, 1, 2, 0, 0, 0, 0, 0, 2, 10.6666666667, 6.81481481481, 3, 4
1, 0, 2, 1, 0, 0, 0, 1, 0, 0, 0, 6, 0, 2, 0, 0, 0, 0, 0, -1, 7.66666666667, 7.68421052632, 3, 4
2, 0, 0, 0, 0, 1, 0, 0, 0, 0, 0, 1, 0, 0, 0, 0, 0, 0, 0, 1, 7.0, 8.2, 1, 4
0, 0, 0, 0, 0, 1, 0, 1, 1, 0, 0, 5, 0, 1, 0, 0, 1, 1, 0, 2, 13.0, 7.84615384615, 1, 4
2, 0, 0, 0, 0, 1, 2, 0, 0, 0, 0, 7, 1, 2, 0, 0, 0, 0, 0, 3, 14.5, 7.56, 2, 4
0, 0, 1, 0, 0, 0, 0, 0, 0, 0, 0, 5, 0, 0, 0, 0, 0, 0, 0, 3, 5.0, 7.875, 2, 4
0, 0, 0, 1, 0, 0, 0, 1, 0, 0, 1, 1, 0, 0, 0, 0, 0, 0, 0, 0, 3.0, 9.5, 2, 4
0, 0, 0, 0, 0, 0, 0, 0, 0, 0, 0, 1, 0, 1, 0, 0, 0, 0, 0, 0, 6.0, 8.2, 1, 4
3, 0, 0, 1, 1, 0, 1, 1, 1, 0, 0, 9, 1, 4, 0, 1, 1, 0, 0, 1, 7.0, 7.0, 4, 4
0, 0, 0, 0, 0, 0, 1, 1, 0, 0, 0, 8, 3, 1, 0, 0, 0, 0, 0, 0, 18.0, 7.23076923077, 1, 4
2, 2, 0, 1, 0, 0, 0, 0, 0, 0, 1, 2, 0, 1, 0, 0, 0, 0, 0, 0, 5.0, 8.08333333333, 3, 4
3, 2, 1, 1, 0, 0, 0, 0, 0, 0, 0, 8, 0, 1, 1, 1, 0, 0, 0, 6, 14.5, 7.10714285714, 2, 4
1, 2, 0, 3, 1, 0, 0, 1, 1, 0, 0, 4, 3, 3, 0, 0, 11, 0, 0, -2, 27.0, 7.48, 1, 4
0, 0, 0, 0, 0, 0, 0, 0, 0, 0, 1, 6, 1, 3, 0, 2, 0, 0, 0, 5, 8.5, 7.26666666667, 2, 4
1, 0, 1, 0, 0, 0, 0, 0, 0, 0, 2, 3, 1, 0, 0, 0, 0, 0, 0, 0, 4.66666666667, 7.66666666667, 3, 4
4, 1, 1, 2, 2, 0, 0, 1, 0, 1, 1, 8, 0, 1, 0, 0, 0, 1, 0, 2, 9.66666666667, 7.48148148148, 3, 4
0, 2, 0, 1, 0, 0, 0, 0, 0, 0, 0, 5, 1, 1, 0, 0, 0, 0, 0, 4, 4.33333333333, 8.18181818182, 3, 4
1, 0, 0, 0, 0, 0, 0, 0, 0, 0, 0, 2, 0, 0, 0, 0, 1, 0, 0, 0, 7.0, 6.4, 1, 4
1, 0, 0, 0, 0, 0, 0, 0, 0, 0, 0, 1, 0, 1, 0, 0, 0, 0, 0, 1, 4.0, 8.75, 1, 4
0, 2, 0, 0, 1, 0, 1, 0, 0, 0, 0, 4, 0, 1, 0, 0, 0, 0, 0, 3, 15.0, 8.0, 1, 4
0, 2, 1, 1, 0, 1, 0, 0, 0, 0, 0, 7, 6, 1, 0, 1, 2, 0, 0, 6, 6.2, 7.64, 5, 4
0, 0, 0, 0, 0, 0, 0, 0, 0, 0, 0, 1, 1, 0, 0, 0, 0, 0, 0, -1, 9.0, 7.875, 1, 4
0, 1, 0, 0, 0, 0, 0, 0, 0, 2, 0, 5, 1, 1, 0, 0, 0, 0, 0, 4, 11.0, 10.0, 1, 4
0, 0, 0, 0, 0, 0, 0, 0, 0, 0, 0, 5, 0, 1, 0, 0, 0, 0, 0, 0, 12.0, 6.66666666667, 1, 4
0, 0, 0, 0, 1, 0, 0, 0, 0, 0, 0, 2, 2, 1, 0, 0, 0, 0, 0, 0, 8.0, 7.375, 1, 4
1, 0, 0, 1, 1, 0, 0, 0, 0, 0, 0, 3, 0, 0, 0, 0, 0, 0, 0, 0, 8.0, 8.875, 1, 4
0, 0, 0, 0, 0, 0, 0, 0, 0, 0, 0, 1, 0, 0, 0, 0, 0, 0, 0, 3, 4.0, 10.3333333333, 1, 4
1, 0, 0, 0, 0, 0, 0, 1, 0, 0, 1, 3, 1, 0, 0, 0, 0, 0, 0, 5, 6.0, 7.58333333333, 3, 4
0, 0, 0, 0, 0, 0, 1, 0, 0, 0, 0, 3, 0, 0, 0, 0, 0, 0, 0, 0, 6.0, 8.25, 1, 4
0, 0, 0, 0, 0, 0, 0, 0, 0, 0, 0, 1, 0, 0, 0, 0, 0, 0, 0, 0, 6.0, 7.4, 1, 4
2, 0, 0, 0, 0, 0, 0, 0, 0, 2, 0, 3, 1, 1, 0, 0, 0, 0, 0, 6, 9.0, 7.0, 1, 4
1, 4, 0, 0, 0, 0, 0, 0, 0, 0, 0, 6, 0, 1, 0, 0, 0, 0, 0, 1, 10.5, 7.61111111111, 2, 4
0, 1, 1, 0, 0, 0, 0, 2, 0, 2, 2, 10, 1, 2, 0, 0, 0, 0, 0, 6, 9.33333333333, 7.9, 3, 4
0, 0, 0, 0, 0, 0, 0, 1, 0, 0, 1, 1, 1, 1, 0, 0, 0, 0, 0, 4, 5.0, 7.14285714286, 2, 4
3, 1, 0, 2, 1, 0, 2, 1, 0, 0, 0, 2, 0, 3, 0, 0, 0, 0, 0, 0, 15.5, 7.0, 2, 4
0, 0, 0, 0, 0, 0, 0, 0, 0, 0, 0, 6, 0, 0, 0, 1, 1, 0, 0, 7, 7.0, 7.72727272727, 2, 4
1, 1, 0, 1, 1, 0, 0, 0, 0, 0, 0, 7, 1, 0, 0, 1, 0, 0, 0, 4, 6.66666666667, 7.88235294118, 3, 4
1, 1, 0, 1, 0, 0, 3, 0, 1, 0, 0, 6, 5, 0, 1, 0, 0, 0, 0, 0, 21.0, 8.94117647059, 1, 4
2, 0, 0, 0, 0, 0, 0, 2, 0, 0, 2, 2, 1, 1, 0, 0, 0, 0, 0, 2, 6.0, 8.88888888889, 2, 4
0, 0, 1, 0, 1, 0, 1, 0, 0, 0, 0, 1, 0, 3, 0, 1, 0, 0, 0, 0, 10.0, 7.44444444444, 1, 4
0, 0, 0, 0, 0, 0, 0, 0, 0, 0, 0, 2, 1, 0, 0, 0, 0, 0, 0, 0, 6.0, 7.6, 1, 4
0, 0, 0, 0, 0, 1, 0, 0, 0, 0, 0, 1, 1, 0, 0, 0, 1, 0, 0, 0, 5.0, 6.875, 2, 4
1, 0, 0, 0, 1, 0, 0, 1, 0, 0, 1, 7, 1, 2, 0, 0, 5, 0, 0, -3, 9.0, 7.5, 2, 4
1, 1, 0, 1, 0, 0, 0, 2, 0, 0, 2, 5, 0, 3, 0, 0, 2, 0, 0, -3, 6.5, 8.04761904762, 4, 4
0, 0, 0, 1, 0, 0, 0, 0, 0, 0, 0, 1, 0, 2, 0, 1, 0, 0, 0, 2, 8.0, 8.83333333333, 1, 4
0, 0, 0, 0, 0, 0, 0, 0, 0, 0, 0, 2, 0, 1, 0, 0, 0, 0, 0, 0, 5.0, 8.8, 1, 4
0, 1, 1, 0, 0, 0, 0, 0, 0, 0, 0, 3, 0, 0, 0, 1, 1, 0, 0, 5, 5.5, 7.66666666667, 2, 4
0, 0, 2, 0, 0, 0, 1, 0, 0, 0, 0, 4, 0, 0, 0, 0, 0, 0, 0, 3, 9.0, 7.0, 2, 4
0, 2, 0, 0, 1, 0, 0, 0, 0, 2, 1, 4, 2, 2, 0, 0, 0, 0, 0, 6, 8.5, 8.33333333333, 2, 4
0, 1, 1, 0, 0, 0, 0, 0, 0, 0, 0, 4, 0, 2, 0, 0, 0, 0, 0, 0, 15.0, 6.7, 1, 4
0, 0, 0, 0, 0, 0, 0, 0, 0, 0, 0, 5, 0, 1, 0, 0, 1, 0, 0, 1, 6.0, 8.3, 2, 4
1, 1, 0, 0, 0, 0, 0, 0, 0, 0, 0, 6, 1, 2, 0, 1, 0, 0, 0, 7, 8.5, 7.71428571429, 2, 4
1, 1, 0, 0, 0, 0, 0, 1, 0, 0, 2, 9, 0, 2, 0, 0, 1, 1, 0, 10, 5.8, 7.29166666667, 5, 4
2, 1, 0, 1, 0, 1, 1, 1, 0, 0, 1, 3, 0, 0, 1, 0, 1, 0, 0, 0, 19.0, 6.375, 1, 4
0, 0, 0, 1, 0, 0, 1, 0, 0, 0, 0, 3, 0, 0, 0, 0, 0, 0, 0, 7, 10.0, 7.5, 1, 4
1, 0, 0, 0, 0, 0, 1, 0, 0, 0, 0, 6, 0, 1, 0, 0, 0, 0, 0, 0, 6.5, 8.18181818182, 2, 4
0, 0, 0, 0, 0, 0, 0, 0, 0, 0, 0, 0, 0, 0, 0, 0, 0, 0, 0, 3, 3.0, 9.0, 1, 4
0, 0, 0, 0, 0, 0, 0, 0, 0, 0, 0, 0, 0, 0, 0, 0, 0, 0, 0, 3, 2.0, 9.0, 1, 4
1, 1, 0, 0, 0, 0, 1, 1, 1, 0, 0, 6, 1, 1, 0, 1, 0, 0, 0, 10, 7.66666666667, 8.0, 3, 4
1, 0, 0, 1, 2, 0, 0, 0, 0, 0, 0, 3, 0, 0, 0, 0, 0, 0, 0, -1, 15.0, 7.41666666667, 1, 4
0, 1, 0, 0, 0, 0, 0, 0, 0, 0, 1, 1, 1, 2, 0, 0, 0, 0, 0, 4, 7.0, 7.27272727273, 2, 4
0, 0, 0, 0, 0, 0, 0, 0, 0, 0, 0, 1, 0, 0, 0, 0, 0, 0, 0, 0, 2.0, 9.0, 1, 4
1, 2, 0, 0, 0, 0, 0, 0, 0, 0, 0, 6, 0, 0, 0, 0, 0, 0, 0, 7, 5.0, 8.72727272727, 3, 4
0, 1, 0, 0, 0, 0, 0, 0, 0, 0, 0, 3, 1, 0, 0, 0, 0, 0, 0, 0, 4.5, 8.57142857143, 2, 4
2, 0, 0, 2, 1, 0, 3, 0, 0, 0, 0, 7, 2, 1, 0, 0, 0, 0, 0, 3, 16.5, 6.82142857143, 2, 4
1, 0, 0, 0, 0, 1, 0, 0, 0, 0, 0, 4, 0, 1, 0, 0, 0, 0, 0, 1, 7.0, 7.83333333333, 2, 4
1, 1, 0, 0, 0, 0, 1, 0, 1, 0, 0, 3, 0, 0, 1, 0, 0, 0, 0, 0, 10.0, 7.125, 1, 4
0, 0, 0, 1, 0, 0, 0, 0, 0, 0, 0, 7, 0, 2, 0, 0, 0, 0, 0, 4, 20.0, 7.0, 1, 4
2, 0, 1, 2, 1, 0, 0, 0, 0, 0, 1, 3, 0, 1, 1, 0, 0, 0, 0, 0, 11.5, 6.47619047619, 2, 4
0, 0, 0, 1, 0, 0, 0, 0, 0, 0, 0, 1, 0, 0, 0, 0, 0, 0, 0, -1, 5.0, 9.8, 1, 4
1, 0, 1, 1, 0, 1, 0, 0, 0, 0, 0, 3, 0, 2, 0, 0, 0, 0, 0, 0, 6.66666666667, 7.70588235294, 3, 4
2, 0, 0, 0, 0, 0, 1, 0, 0, 0, 1, 3, 0, 1, 0, 0, 0, 0, 0, 1, 7.0, 8.45454545455, 2, 4
2, 0, 0, 0, 1, 0, 3, 0, 0, 0, 0, 2, 2, 2, 1, 0, 0, 0, 0, -2, 5.5, 8.13333333333, 4, 4
0, 0, 0, 0, 0, 0, 0, 0, 0, 0, 1, 0, 0, 1, 1, 0, 0, 0, 0, 2, 4.0, 10.6666666667, 1, 4
2, 0, 0, 0, 0, 0, 0, 0, 0, 0, 0, 4, 1, 2, 0, 0, 2, 0, 0, 11, 6.66666666667, 7.05882352941, 3, 4
0, 0, 0, 0, 1, 0, 0, 0, 0, 0, 0, 6, 0, 0, 0, 0, 0, 0, 0, 4, 6.0, 7.18181818182, 2, 4
1, 0, 0, 0, 0, 1, 0, 0, 0, 0, 0, 2, 1, 1, 0, 0, 0, 0, 0, 2, 7.0, 6.66666666667, 2, 4
0, 0, 0, 0, 0, 0, 0, 0, 0, 0, 0, 4, 0, 0, 1, 0, 0, 0, 0, 0, 8.0, 8.33333333333, 1, 4
0, 1, 0, 0, 0, 0, 0, 0, 0, 0, 0, 6, 0, 1, 0, 0, 0, 0, 0, 1, 7.0, 6.92307692308, 2, 4
1, 0, 0, 0, 0, 0, 0, 0, 0, 0, 0, 5, 0, 0, 0, 1, 0, 0, 0, 3, 10.0, 8.0, 1, 4
0, 0, 0, 0, 0, 0, 0, 0, 0, 0, 0, 1, 0, 0, 0, 0, 0, 0, 0, 0, 3.0, 11.0, 1, 4
1, 0, 1, 0, 0, 0, 0, 0, 0, 0, 0, 8, 0, 1, 0, 0, 0, 0, 0, 0, 12.0, 7.08333333333, 1, 4
0, 0, 0, 0, 0, 0, 0, 0, 0, 0, 0, 1, 1, 0, 0, 0, 0, 0, 0, 3, 2.0, 10.0, 1, 4
2, 2, 1, 1, 1, 0, 0, 0, 0, 0, 0, 4, 0, 1, 0, 0, 0, 0, 0, 6, 6.25, 7.59090909091, 4, 4
1, 0, 0, 1, 0, 0, 1, 1, 0, 0, 1, 3, 1, 2, 0, 0, 1, 0, 0, 0, 5.5, 7.26666666667, 4, 4
1, 0, 0, 1, 0, 0, 2, 0, 0, 0, 0, 13, 0, 0, 0, 0, 2, 0, 0, 0, 13.5, 7.66666666667, 2, 4
0, 1, 0, 0, 0, 0, 0, 0, 0, 1, 0, 4, 0, 0, 0, 0, 0, 0, 0, 0, 5.0, 7.5, 1, 4
1, 2, 1, 1, 0, 0, 0, 2, 0, 0, 2, 3, 0, 2, 0, 0, 0, 0, 0, 5, 7.66666666667, 7.95238095238, 3, 4
2, 0, 1, 1, 1, 0, 0, 0, 0, 0, 0, 4, 1, 0, 2, 0, 0, 0, 0, -2, 4.8, 8.0, 5, 4
0, 1, 0, 0, 0, 0, 0, 0, 0, 0, 0, 3, 0, 0, 1, 0, 0, 0, 0, -4, 5.0, 7.36363636364, 3, 4
2, 0, 0, 0, 1, 0, 0, 0, 0, 0, 0, 3, 0, 2, 0, 1, 0, 0, 0, 4, 13.0, 6.81818181818, 1, 4
1, 1, 0, 0, 1, 0, 0, 0, 0, 0, 0, 1, 0, 1, 0, 0, 0, 0, 0, 1, 8.0, 7.625, 1, 4
4, 0, 0, 0, 0, 0, 1, 0, 0, 0, 0, 4, 0, 1, 1, 0, 0, 0, 0, 1, 24.0, 7.0, 1, 4
0, 0, 0, 0, 0, 0, 1, 0, 0, 0, 0, 7, 0, 0, 0, 0, 0, 0, 0, 0, 8.0, 9.57142857143, 1, 4
1, 0, 0, 2, 0, 0, 2, 0, 0, 0, 0, 5, 0, 0, 1, 0, 0, 0, 0, 1, 10.5, 8.33333333333, 2, 4
0, 1, 1, 0, 0, 0, 0, 1, 1, 0, 1, 6, 0, 0, 0, 0, 0, 0, 0, 0, 5.5, 10.7, 2, 4
0, 0, 0, 1, 0, 0, 0, 1, 0, 0, 2, 7, 0, 1, 0, 0, 1, 0, 0, 0, 7.33333333333, 6.6, 3, 4
2, 2, 0, 0, 0, 0, 0, 0, 0, 0, 0, 3, 0, 0, 1, 0, 0, 0, 0, 1, 9.0, 7.4375, 2, 4
1, 2, 0, 0, 1, 0, 1, 0, 0, 0, 0, 6, 0, 0, 1, 0, 1, 0, 0, 4, 8.5, 7.33333333333, 2, 4
2, 0, 1, 0, 1, 0, 0, 0, 0, 0, 0, 5, 0, 1, 0, 0, 0, 0, 0, 5, 10.5, 7.64705882353, 2, 4
0, 0, 0, 0, 0, 0, 0, 0, 0, 0, 0, 2, 0, 0, 0, 0, 0, 0, 0, 4, 5.0, 7.4, 1, 4
0, 0, 0, 1, 1, 0, 0, 1, 0, 2, 0, 9, 0, 2, 0, 0, 0, 0, 0, 7, 11.0, 9.27777777778, 2, 4
0, 0, 1, 0, 0, 0, 0, 1, 0, 0, 1, 3, 0, 0, 0, 0, 0, 0, 0, 0, 8.0, 8.42857142857, 1, 4
1, 0, 1, 1, 0, 0, 2, 0, 0, 0, 0, 11, 0, 2, 0, 1, 2, 0, 0, 3, 9.0, 7.16666666667, 3, 4
0, 1, 0, 0, 0, 0, 0, 0, 0, 0, 0, 2, 0, 0, 0, 0, 0, 0, 0, 2, 6.0, 8.5, 1, 4
1, 3, 1, 0, 0, 0, 0, 0, 0, 0, 0, 4, 0, 2, 1, 1, 0, 0, 0, 11, 9.33333333333, 7.64, 3, 4
0, 1, 0, 0, 0, 0, 0, 0, 0, 0, 0, 4, 0, 0, 0, 1, 1, 0, 0, 3, 5.0, 9.2, 1, 4
0, 0, 1, 0, 0, 0, 0, 0, 0, 0, 0, 4, 0, 0, 0, 0, 0, 0, 0, 2, 7.0, 6.84615384615, 2, 4
2, 0, 1, 1, 0, 0, 1, 1, 1, 0, 0, 5, 2, 1, 0, 0, 0, 0, 0, 6, 13.0, 7.81818181818, 2, 4
0, 1, 0, 0, 0, 0, 1, 0, 1, 0, 2, 7, 1, 1, 0, 1, 2, 0, 0, 5, 4.5, 7.35, 6, 4
0, 0, 0, 0, 0, 0, 0, 0, 0, 0, 0, 4, 0, 0, 0, 0, 0, 0, 0, 3, 5.0, 8.875, 2, 4
2, 1, 0, 0, 0, 0, 0, 0, 1, 0, 0, 5, 3, 1, 0, 0, 0, 0, 0, 2, 8.33333333333, 7.65, 3, 4
0, 0, 0, 0, 0, 0, 0, 0, 0, 0, 0, 3, 0, 0, 0, 0, 1, 0, 0, 0, 6.0, 7.5, 1, 4
0, 2, 4, 1, 1, 0, 0, 1, 0, 0, 1, 8, 1, 1, 0, 2, 0, 0, 0, 0, 8.25, 6.54166666667, 4, 4
0, 0, 0, 0, 0, 0, 0, 0, 0, 0, 0, 3, 0, 0, 0, 0, 0, 0, 0, 0, 14.0, 6.76923076923, 1, 4
0, 0, 0, 0, 0, 0, 0, 0, 0, 0, 0, 3, 0, 0, 0, 0, 0, 0, 0, 2, 3.0, 10.6666666667, 1, 4
0, 0, 1, 0, 0, 1, 0, 1, 0, 0, 1, 4, 0, 3, 0, 1, 0, 0, 0, 1, 6.0, 7.6, 3, 4
1, 0, 0, 0, 0, 0, 0, 2, 1, 0, 1, 2, 0, 2, 0, 0, 1, 0, 0, 1, 4.66666666667, 6.36363636364, 3, 4
0, 0, 0, 0, 0, 0, 0, 0, 0, 0, 0, 2, 0, 1, 0, 0, 0, 0, 0, -1, 6.0, 6.54545454545, 2, 4
0, 0, 0, 0, 0, 0, 0, 0, 0, 0, 0, 8, 0, 0, 0, 0, 0, 0, 0, 5, 6.5, 7.33333333333, 2, 4
0, 0, 0, 0, 0, 0, 0, 0, 0, 0, 0, 2, 0, 0, 0, 0, 0, 0, 0, 2, 2.0, 10.5, 1, 4
2, 1, 0, 1, 0, 1, 0, 0, 0, 0, 0, 5, 0, 1, 1, 0, 0, 0, 0, 1, 23.0, 8.0, 1, 4
0, 1, 0, 0, 0, 0, 1, 0, 1, 0, 2, 7, 1, 1, 0, 1, 2, 0, 0, 5, 4.5, 7.35, 6, 4
0, 0, 0, 0, 0, 0, 0, 0, 0, 0, 0, 2, 0, 0, 0, 0, 0, 0, 0, 0, 2.0, 10.0, 1, 4
1, 1, 0, 0, 1, 0, 0, 0, 0, 0, 0, 2, 0, 0, 0, 0, 0, 0, 0, 0, 5.0, 8.8, 1, 4
0, 0, 1, 0, 0, 0, 0, 0, 0, 0, 1, 3, 0, 0, 0, 0, 0, 0, 0, -3, 4.5, 8.125, 2, 4
1, 0, 0, 0, 0, 1, 0, 0, 0, 0, 0, 2, 0, 0, 0, 0, 0, 0, 0, -1, 7.0, 7.42857142857, 1, 4
0, 0, 0, 0, 0, 0, 0, 0, 0, 0, 0, 2, 0, 0, 0, 0, 0, 0, 0, -3, 6.0, 9.0, 1, 4
1, 0, 1, 0, 0, 0, 0, 0, 0, 0, 0, 2, 0, 0, 0, 0, 0, 0, 0, 3, 6.0, 9.75, 1, 4
1, 0, 0, 1, 0, 0, 0, 0, 0, 0, 0, 3, 2, 0, 0, 0, 0, 0, 0, 2, 4.5, 8.25, 2, 4
1, 0, 1, 0, 0, 0, 0, 0, 0, 0, 0, 5, 1, 0, 0, 0, 0, 0, 0, 0, 8.0, 7.13333333333, 2, 4
0, 0, 0, 0, 0, 0, 1, 0, 0, 0, 0, 2, 0, 0, 0, 0, 0, 0, 0, 3, 5.0, 10.25, 1, 4
0, 0, 0, 0, 0, 0, 0, 0, 0, 0, 0, 3, 0, 1, 0, 0, 0, 0, 0, 0, 11.0, 6.63636363636, 1, 4
4, 0, 1, 1, 1, 1, 1, 0, 0, 0, 0, 5, 1, 1, 0, 0, 0, 0, 0, -2, 6.6, 7.45833333333, 5, 4
1, 1, 0, 0, 0, 0, 3, 0, 0, 0, 1, 10, 0, 1, 0, 1, 0, 0, 0, 0, 19.0, 7.73333333333, 1, 4
0, 0, 4, 1, 0, 0, 0, 0, 0, 0, 0, 6, 0, 0, 0, 0, 0, 0, 0, 0, 9.5, 8.1875, 2, 4
4, 0, 1, 0, 1, 0, 0, 1, 0, 0, 0, 4, 0, 2, 0, 0, 0, 0, 0, 1, 7.0, 7.42105263158, 3, 4
0, 1, 0, 0, 0, 0, 0, 1, 0, 2, 0, 6, 1, 1, 0, 0, 0, 0, 0, 2, 9.5, 8.0625, 2, 4
0, 3, 1, 0, 0, 1, 1, 0, 0, 0, 0, 6, 0, 0, 2, 0, 0, 0, 0, 1, 11.5, 7.66666666667, 2, 4
1, 0, 0, 0, 0, 0, 1, 1, 1, 0, 0, 12, 1, 0, 0, 0, 0, 0, 0, 0, 8.5, 9.14285714286, 2, 4
2, 2, 0, 0, 0, 1, 1, 0, 0, 0, 0, 5, 0, 1, 1, 0, 0, 0, 0, 2, 13.0, 6.86956521739, 2, 4
0, 3, 0, 0, 0, 1, 0, 0, 0, 0, 0, 7, 1, 1, 1, 0, 0, 0, 0, 1, 30.0, 7.06896551724, 1, 4
1, 1, 0, 0, 0, 0, 0, 0, 0, 0, 0, 7, 1, 0, 0, 0, 0, 0, 0, 7, 8.5, 7.73333333333, 2, 4
3, 0, 0, 1, 0, 0, 0, 0, 0, 0, 0, 4, 0, 4, 0, 0, 0, 0, 0, 0, 9.33333333333, 7.70833333333, 3, 4
1, 0, 0, 0, 0, 1, 1, 0, 0, 0, 0, 2, 1, 2, 0, 0, 0, 0, 0, -1, 11.0, 7.55555555556, 1, 4
0, 0, 0, 0, 0, 0, 0, 0, 0, 0, 0, 1, 0, 0, 0, 0, 1, 0, 0, 0, 2.0, 12.0, 1, 4
1, 0, 0, 0, 1, 1, 0, 1, 0, 0, 2, 8, 0, 2, 1, 0, 23, 0, 0, 0, 8.66666666667, 7.625, 3, 4
1, 0, 0, 0, 0, 0, 0, 0, 0, 0, 0, 1, 0, 1, 0, 0, 0, 0, 0, 0, 5.0, 8.5, 1, 4
1, 0, 0, 0, 1, 0, 0, 3, 3, 0, 0, 6, 1, 3, 0, 1, 0, 0, 0, 8, 22.0, 8.55555555556, 1, 4
1, 1, 0, 0, 0, 0, 1, 0, 0, 0, 0, 4, 0, 0, 0, 0, 0, 0, 0, 3, 7.0, 8.2, 1, 4
2, 1, 0, 0, 0, 0, 0, 0, 0, 0, 0, 1, 2, 2, 1, 0, 1, 0, 0, -3, 9.0, 6.8125, 2, 4
0, 1, 0, 0, 0, 0, 0, 0, 0, 0, 0, 6, 0, 2, 0, 2, 0, 0, 0, -1, 11.0, 7.54545454545, 1, 4
3, 0, 0, 1, 0, 1, 0, 0, 0, 0, 1, 8, 0, 1, 0, 1, 2, 0, 0, 0, 14.0, 7.58333333333, 2, 4
0, 0, 0, 0, 0, 0, 0, 0, 0, 0, 0, 4, 0, 0, 0, 0, 0, 0, 0, 2, 4.0, 10.75, 1, 4
0, 1, 0, 2, 0, 0, 1, 1, 0, 0, 1, 5, 1, 1, 0, 0, 0, 0, 0, 2, 12.5, 8.09090909091, 2, 4
1, 0, 4, 1, 2, 0, 2, 0, 0, 2, 0, 5, 0, 4, 1, 0, 0, 0, 0, 0, 31.0, 7.16, 1, 4
0, 1, 0, 0, 0, 0, 0, 0, 0, 0, 0, 5, 1, 0, 1, 0, 0, 0, 0, 4, 3.75, 8.36363636364, 4, 4
2, 0, 0, 1, 2, 0, 1, 0, 0, 0, 0, 5, 1, 0, 0, 0, 0, 0, 0, 0, 11.0, 6.42105263158, 2, 4
1, 0, 2, 1, 0, 0, 1, 0, 0, 0, 0, 5, 0, 2, 1, 1, 1, 0, 0, 2, 9.66666666667, 6.61538461538, 3, 4
4, 3, 3, 0, 0, 0, 1, 0, 0, 0, 0, 6, 1, 0, 0, 0, 1, 0, 0, 7, 9.33333333333, 6.68, 3, 4
3, 1, 0, 1, 0, 0, 1, 0, 0, 0, 2, 6, 0, 7, 0, 2, 0, 0, 0, 7, 6.6, 6.95833333333, 5, 4
0, 0, 0, 0, 0, 0, 1, 0, 0, 0, 0, 2, 1, 0, 0, 0, 0, 0, 0, 2, 9.0, 9.28571428571, 1, 4
0, 0, 0, 1, 0, 0, 1, 0, 0, 0, 0, 4, 0, 0, 0, 0, 2, 0, 0, 5, 6.5, 7.2, 2, 4
0, 0, 0, 0, 0, 0, 0, 0, 0, 0, 0, 2, 0, 0, 0, 0, 0, 0, 0, 4, 6.0, 7.8, 1, 4
1, 1, 0, 2, 0, 0, 3, 0, 0, 0, 1, 8, 0, 1, 0, 0, 0, 0, 0, 3, 30.0, 7.19230769231, 1, 4
2, 0, 1, 1, 0, 0, 0, 0, 0, 0, 0, 5, 0, 1, 0, 0, 0, 0, 0, 7, 13.5, 7.875, 2, 4
0, 0, 0, 0, 0, 0, 0, 0, 0, 0, 0, 6, 0, 1, 0, 0, 0, 0, 0, 6, 7.0, 8.07692307692, 2, 4
1, 0, 0, 0, 1, 0, 0, 0, 0, 0, 0, 8, 0, 0, 1, 0, 0, 0, 0, 3, 12.0, 6.83333333333, 1, 4
2, 0, 1, 1, 0, 0, 0, 3, 0, 0, 3, 5, 0, 4, 0, 0, 0, 0, 0, -8, 6.4, 7.15384615385, 5, 4
0, 3, 1, 0, 0, 1, 1, 0, 0, 0, 0, 5, 0, 0, 2, 0, 0, 0, 0, 1, 11.5, 7.66666666667, 2, 4
0, 0, 0, 0, 2, 0, 0, 0, 0, 0, 2, 4, 0, 1, 0, 0, 0, 0, 0, 3, 6.0, 7.5, 3, 4
1, 0, 0, 0, 0, 0, 0, 0, 0, 0, 0, 6, 1, 1, 0, 0, 0, 0, 0, 4, 8.0, 8.86666666667, 2, 4
2, 0, 0, 0, 1, 0, 0, 0, 0, 0, 0, 4, 0, 1, 0, 0, 0, 0, 0, 0, 11.0, 7.0, 1, 4
5, 1, 0, 0, 3, 0, 0, 0, 0, 0, 0, 6, 0, 6, 0, 3, 0, 0, 0, 0, 11.3333333333, 6.5, 3, 4
1, 0, 0, 0, 1, 0, 0, 0, 0, 0, 0, 3, 0, 0, 0, 0, 0, 0, 0, 2, 6.0, 9.16666666667, 1, 4
0, 0, 1, 0, 1, 0, 0, 0, 0, 0, 0, 2, 0, 1, 0, 0, 0, 0, 0, 4, 7.0, 7.33333333333, 1, 4
0, 0, 0, 0, 0, 0, 0, 0, 0, 0, 0, 7, 1, 0, 0, 0, 0, 0, 0, 4, 7.5, 7.28571428571, 2, 4
0, 0, 0, 0, 0, 0, 1, 0, 0, 0, 0, 3, 0, 1, 0, 0, 0, 0, 0, 0, 11.0, 7.66666666667, 1, 4
1, 0, 0, 0, 0, 0, 0, 0, 0, 0, 0, 9, 0, 0, 0, 0, 0, 0, 0, 1, 12.0, 8.33333333333, 1, 4
0, 0, 0, 1, 0, 0, 1, 0, 1, 0, 0, 10, 1, 0, 0, 0, 0, 0, 0, 2, 16.0, 7.16666666667, 1, 4
0, 0, 0, 0, 0, 0, 0, 0, 0, 0, 0, 5, 0, 2, 0, 0, 0, 0, 0, 0, 4.0, 7.85714285714, 2, 4
0, 1, 0, 0, 0, 0, 0, 1, 0, 0, 0, 7, 0, 1, 0, 0, 0, 0, 0, 8, 15.0, 8.85714285714, 1, 4
0, 1, 0, 0, 0, 0, 0, 0, 0, 0, 0, 4, 1, 0, 0, 0, 1, 0, 0, 2, 4.5, 8.0, 2, 4
1, 0, 0, 0, 0, 0, 0, 0, 0, 0, 0, 6, 0, 0, 0, 0, 1, 0, 0, 1, 6.0, 9.72727272727, 2, 4
1, 0, 0, 0, 0, 0, 0, 1, 0, 0, 1, 4, 0, 3, 1, 0, 0, 0, 0, 4, 6.66666666667, 7.61111111111, 3, 4
0, 0, 0, 0, 1, 1, 0, 0, 0, 0, 0, 5, 0, 0, 0, 0, 0, 0, 0, 0, 5.0, 9.625, 2, 4
0, 1, 0, 0, 0, 0, 0, 0, 0, 0, 0, 4, 1, 0, 0, 0, 3, 0, 0, -4, 14.0, 8.45454545455, 1, 4
0, 0, 0, 0, 0, 0, 0, 1, 0, 0, 0, 7, 0, 0, 0, 0, 0, 0, 0, 3, 5.0, 10.6666666667, 2, 4
2, 0, 0, 0, 0, 0, 1, 0, 0, 0, 0, 6, 0, 2, 1, 0, 0, 0, 0, 0, 25.0, 8.08695652174, 1, 4
0, 0, 0, 0, 1, 0, 0, 0, 0, 0, 0, 2, 1, 0, 0, 0, 0, 0, 0, 0, 6.0, 8.8, 1, 4
2, 1, 0, 0, 1, 0, 0, 0, 0, 0, 0, 2, 0, 1, 0, 1, 0, 0, 0, 3, 13.0, 7.76923076923, 1, 4
0, 1, 1, 0, 0, 0, 0, 0, 0, 0, 0, 3, 0, 1, 0, 0, 0, 0, 0, 5, 4.5, 7.71428571429, 2, 4
0, 0, 0, 0, 0, 0, 0, 0, 0, 1, 0, 5, 0, 0, 0, 0, 0, 0, 0, 0, 13.0, 7.0, 1, 4
0, 2, 0, 0, 1, 0, 1, 0, 0, 0, 1, 8, 2, 1, 1, 0, 1, 0, 0, 5, 8.33333333333, 8.15, 3, 4
0, 1, 0, 0, 0, 1, 1, 0, 0, 0, 0, 7, 1, 1, 0, 0, 1, 0, 0, 0, 18.0, 7.92857142857, 1, 4
0, 1, 0, 0, 0, 0, 0, 0, 0, 0, 0, 2, 1, 2, 0, 0, 0, 0, 0, 0, 9.0, 9.22222222222, 1, 4
0, 0, 0, 0, 0, 0, 0, 0, 0, 0, 0, 3, 0, 0, 0, 0, 0, 0, 0, 3, 5.0, 6.6, 1, 4
1, 0, 0, 0, 1, 0, 0, 0, 0, 0, 0, 6, 0, 2, 0, 0, 0, 0, 0, 2, 9.0, 7.11764705882, 2, 4
1, 0, 1, 1, 1, 0, 1, 0, 0, 0, 0, 6, 5, 3, 0, 1, 0, 0, 0, 6, 5.14285714286, 6.8275862069, 7, 4
1, 1, 0, 0, 0, 0, 0, 0, 0, 0, 0, 3, 0, 0, 0, 0, 0, 0, 0, 4, 4.5, 8.71428571429, 2, 4
1, 0, 1, 0, 1, 0, 0, 0, 0, 0, 0, 1, 0, 0, 0, 0, 0, 0, 0, 1, 11.0, 7.5, 1, 4
1, 0, 0, 1, 0, 0, 0, 0, 0, 0, 0, 7, 3, 0, 0, 0, 0, 1, 0, -1, 9.0, 7.76470588235, 2, 4
1, 0, 0, 1, 1, 0, 2, 0, 0, 0, 0, 3, 1, 2, 0, 0, 0, 0, 0, 1, 14.0, 8.36363636364, 1, 4
0, 0, 0, 0, 0, 0, 0, 0, 1, 0, 0, 4, 0, 0, 0, 0, 0, 0, 0, 0, 4.33333333333, 8.5, 3, 4
2, 0, 0, 0, 0, 1, 1, 0, 0, 0, 0, 6, 0, 0, 0, 0, 1, 0, 0, 0, 18.0, 7.5625, 1, 4
2, 1, 1, 1, 0, 0, 0, 1, 0, 0, 1, 6, 2, 2, 0, 0, 0, 0, 0, 3, 10.0, 7.26923076923, 3, 4
0, 0, 0, 0, 0, 1, 0, 1, 0, 0, 1, 1, 0, 1, 0, 0, 0, 0, 0, 0, 4.0, 6.71428571429, 2, 4
1, 0, 0, 0, 0, 0, 0, 1, 1, 0, 0, 3, 0, 0, 1, 1, 0, 0, 0, 7, 4.0, 8.0, 2, 4
2, 0, 0, 1, 1, 0, 0, 0, 0, 0, 0, 8, 0, 0, 0, 0, 0, 0, 0, 0, 16.0, 8.93333333333, 1, 4
0, 1, 0, 1, 0, 1, 0, 0, 0, 0, 0, 3, 1, 0, 0, 0, 0, 0, 0, 0, 7.0, 8.83333333333, 2, 4
0, 1, 0, 0, 0, 0, 0, 0, 0, 0, 0, 2, 1, 0, 0, 0, 0, 0, 0, 2, 4.0, 8.66666666667, 1, 4
1, 3, 1, 1, 0, 0, 0, 0, 0, 0, 0, 10, 0, 2, 1, 2, 0, 0, 0, 0, 13.0, 7.125, 2, 4
0, 0, 0, 0, 0, 0, 0, 0, 0, 0, 0, 3, 0, 0, 0, 0, 0, 0, 0, 0, 3.0, 8.33333333333, 1, 4
3, 0, 0, 1, 0, 0, 0, 0, 0, 0, 0, 6, 1, 1, 0, 1, 0, 0, 0, 1, 7.66666666667, 6.6, 3, 4
0, 1, 0, 0, 0, 0, 0, 0, 0, 0, 0, 5, 1, 0, 0, 1, 1, 0, 0, 3, 11.0, 7.47368421053, 2, 4
2, 0, 0, 0, 0, 0, 0, 0, 0, 0, 0, 6, 0, 1, 0, 0, 0, 0, 0, 0, 9.0, 8.22222222222, 1, 4
1, 0, 0, 0, 0, 1, 0, 2, 0, 0, 2, 2, 0, 1, 0, 0, 0, 0, 0, 0, 5.0, 8.08333333333, 3, 4
0, 0, 0, 0, 0, 0, 0, 0, 0, 0, 0, 3, 0, 0, 1, 0, 0, 0, 0, 0, 7.0, 10.4, 1, 4
1, 0, 0, 0, 0, 0, 0, 0, 0, 0, 0, 1, 0, 0, 0, 0, 0, 0, 0, 0, 4.0, 8.25, 1, 4
0, 0, 0, 0, 0, 0, 0, 0, 0, 0, 0, 1, 0, 0, 0, 0, 0, 0, 0, 4, 2.0, 14.0, 1, 4
0, 0, 0, 0, 0, 0, 0, 1, 0, 0, 1, 6, 0, 3, 0, 0, 0, 0, 0, 0, 23.0, 8.05, 1, 4
2, 1, 0, 1, 0, 0, 1, 1, 0, 0, 1, 6, 1, 2, 0, 0, 0, 0, 0, 8, 13.5, 7.79166666667, 2, 4
1, 0, 0, 0, 0, 1, 0, 0, 0, 0, 0, 4, 0, 1, 1, 0, 0, 0, 0, 6, 10.5, 6.9, 2, 4
1, 0, 0, 0, 0, 0, 0, 1, 1, 0, 0, 8, 1, 2, 1, 0, 0, 0, 0, -1, 12.5, 6.90909090909, 2, 4
1, 0, 0, 0, 1, 0, 0, 0, 0, 0, 0, 3, 0, 0, 0, 0, 0, 0, 0, -1, 10.0, 7.44444444444, 1, 4
2, 0, 0, 0, 0, 1, 1, 0, 0, 2, 0, 9, 1, 1, 0, 0, 2, 0, 0, 0, 27.0, 8.35, 1, 4
1, 0, 1, 0, 0, 0, 0, 0, 0, 0, 0, 5, 1, 1, 1, 0, 1, 0, 0, 3, 20.0, 7.66666666667, 1, 4
1, 1, 2, 0, 0, 0, 0, 0, 0, 0, 1, 4, 2, 2, 0, 0, 0, 0, 0, 2, 11.0, 7.21052631579, 2, 4
2, 1, 0, 0, 1, 0, 1, 0, 0, 0, 0, 6, 0, 2, 1, 1, 0, 0, 0, -3, 10.0, 7.07692307692, 3, 4
2, 1, 0, 1, 0, 0, 1, 0, 0, 0, 0, 8, 0, 1, 0, 0, 0, 0, 0, 4, 13.5, 7.18181818182, 2, 4
0, 0, 0, 0, 0, 0, 0, 0, 0, 0, 0, 3, 0, 1, 0, 0, 0, 0, 0, 4, 8.0, 7.375, 1, 4
3, 0, 2, 1, 4, 1, 0, 0, 0, 0, 0, 5, 0, 3, 0, 1, 0, 0, 0, -1, 10.3333333333, 7.0, 3, 4
2, 1, 1, 0, 0, 0, 0, 0, 0, 0, 0, 3, 2, 1, 0, 0, 0, 0, 0, 9, 8.0, 8.2380952381, 3, 4
1, 0, 1, 1, 0, 0, 0, 0, 0, 0, 0, 5, 0, 1, 0, 0, 1, 0, 0, 1, 11.0, 6.6, 2, 4
3, 0, 1, 0, 1, 0, 0, 1, 0, 0, 0, 5, 2, 0, 0, 0, 2, 0, 0, 8, 13.0, 8.04347826087, 2, 4
0, 0, 1, 0, 2, 0, 0, 0, 0, 0, 0, 12, 0, 0, 1, 1, 0, 0, 0, 0, 12.5, 7.63636363636, 2, 4
5, 0, 0, 1, 0, 0, 0, 0, 0, 0, 0, 10, 0, 1, 0, 0, 0, 0, 0, -4, 13.5, 7.79166666667, 2, 4
0, 0, 0, 0, 0, 0, 1, 0, 0, 0, 0, 5, 0, 0, 0, 0, 0, 0, 0, 0, 6.0, 10.5, 1, 4
1, 0, 0, 0, 1, 1, 0, 1, 0, 0, 1, 8, 0, 0, 0, 0, 0, 0, 0, 0, 9.0, 7.3125, 2, 4
0, 1, 1, 0, 0, 0, 0, 1, 1, 0, 0, 5, 2, 2, 0, 0, 1, 0, 0, 3, 11.0, 8.2, 2, 4
2, 1, 0, 0, 1, 0, 0, 0, 0, 0, 0, 6, 0, 1, 0, 0, 0, 0, 0, 3, 9.0, 7.125, 3, 4
0, 0, 0, 0, 0, 0, 0, 0, 0, 0, 0, 1, 0, 1, 0, 0, 0, 0, 0, 0, 4.0, 7.0, 1, 4
1, 0, 0, 0, 0, 0, 0, 0, 0, 0, 0, 1, 1, 0, 0, 0, 0, 0, 0, 0, 10.0, 8.57142857143, 1, 4
0, 0, 0, 0, 0, 0, 0, 1, 1, 0, 0, 3, 0, 4, 0, 1, 0, 0, 0, 2, 14.0, 8.66666666667, 1, 4
0, 0, 1, 0, 0, 0, 0, 0, 0, 0, 0, 1, 0, 0, 0, 0, 0, 0, 0, 0, 7.0, 9.66666666667, 1, 4
0, 0, 0, 0, 0, 0, 0, 0, 0, 0, 1, 4, 0, 1, 0, 0, 0, 0, 0, 2, 8.0, 7.6, 2, 4
1, 0, 1, 0, 0, 0, 1, 0, 0, 0, 0, 7, 1, 0, 1, 0, 0, 0, 0, 5, 21.0, 7.95, 1, 4
2, 1, 1, 2, 0, 0, 2, 0, 0, 0, 1, 6, 0, 1, 0, 2, 2, 0, 0, -1, 8.66666666667, 8.10526315789, 3, 4
3, 0, 0, 2, 0, 0, 0, 1, 0, 0, 1, 11, 1, 2, 0, 1, 2, 0, 0, 1, 7.25, 7.34782608696, 4, 4
0, 0, 2, 2, 0, 0, 1, 0, 0, 1, 0, 5, 3, 2, 0, 0, 0, 0, 0, 6, 12.5, 8.2380952381, 2, 4
0, 0, 0, 0, 0, 0, 0, 0, 0, 0, 0, 4, 0, 1, 0, 0, 0, 0, 0, 3, 10.0, 9.1, 1, 4
0, 1, 0, 0, 0, 0, 1, 0, 0, 0, 0, 4, 0, 0, 0, 0, 0, 0, 0, 1, 11.0, 7.22222222222, 1, 4
0, 1, 0, 0, 0, 0, 0, 0, 0, 0, 0, 1, 0, 0, 1, 0, 0, 0, 0, 0, 5.0, 8.25, 1, 4
0, 0, 0, 0, 0, 0, 0, 0, 0, 0, 0, 3, 0, 0, 0, 0, 0, 0, 0, 0, 7.0, 7.71428571429, 1, 4
0, 0, 1, 0, 0, 0, 0, 1, 0, 0, 1, 2, 1, 1, 0, 0, 0, 0, 0, -1, 4.5, 8.0, 2, 4
5, 0, 2, 2, 0, 0, 2, 1, 1, 0, 0, 5, 1, 2, 0, 1, 0, 0, 0, -2, 32.0, 7.32142857143, 1, 4
2, 1, 0, 0, 0, 0, 0, 0, 0, 0, 1, 2, 0, 0, 0, 1, 0, 0, 0, 3, 9.0, 7.125, 1, 4
1, 0, 1, 1, 0, 0, 0, 0, 0, 0, 0, 3, 0, 2, 0, 1, 0, 0, 0, 2, 7.0, 6.91666666667, 2, 4
0, 0, 0, 0, 0, 0, 0, 1, 0, 0, 1, 2, 0, 1, 1, 0, 0, 0, 0, 1, 10.0, 7.55555555556, 1, 4
1, 0, 0, 0, 0, 0, 0, 0, 0, 0, 1, 5, 1, 0, 0, 0, 1, 0, 0, 4, 5.75, 7.31578947368, 4, 4
2, 0, 1, 1, 0, 1, 0, 1, 1, 0, 0, 7, 0, 1, 0, 0, 0, 0, 0, 0, 22.0, 7.85714285714, 1, 4
1, 1, 0, 0, 0, 0, 0, 0, 0, 0, 0, 2, 0, 2, 0, 0, 0, 0, 0, 0, 8.0, 8.42857142857, 1, 4
0, 1, 0, 0, 0, 0, 2, 0, 0, 0, 0, 8, 0, 1, 0, 1, 0, 0, 0, 2, 8.0, 8.23076923077, 2, 4
0, 0, 0, 0, 0, 0, 0, 0, 0, 0, 0, 3, 0, 0, 0, 0, 0, 0, 0, 2, 6.0, 9.8, 1, 4
0, 0, 0, 0, 0, 0, 0, 0, 0, 0, 0, 3, 0, 0, 0, 0, 0, 0, 0, 0, 3.0, 12.0, 1, 4
2, 0, 1, 1, 1, 0, 0, 0, 0, 0, 0, 3, 5, 2, 0, 0, 0, 0, 0, 7, 7.0, 7.91666666667, 4, 4
0, 0, 0, 0, 0, 0, 0, 0, 0, 0, 0, 3, 0, 1, 0, 1, 0, 0, 0, 2, 3.5, 9.6, 2, 4
0, 1, 0, 0, 0, 0, 0, 0, 0, 0, 0, 3, 0, 0, 1, 0, 0, 0, 0, 1, 11.0, 7.2, 1, 4
0, 0, 0, 0, 0, 0, 0, 1, 0, 0, 1, 9, 0, 0, 0, 0, 1, 0, 0, 0, 6.5, 10.0, 2, 4
0, 1, 0, 1, 0, 0, 0, 0, 0, 0, 0, 5, 2, 0, 0, 0, 0, 0, 0, 10, 5.33333333333, 7.92307692308, 3, 4
2, 0, 1, 0, 0, 0, 0, 0, 0, 0, 0, 3, 0, 2, 0, 0, 0, 0, 0, 7, 17.0, 7.125, 1, 4
1, 1, 0, 0, 0, 0, 0, 1, 0, 0, 1, 6, 0, 1, 0, 0, 0, 0, 0, 0, 6.5, 6.63636363636, 2, 4
0, 0, 0, 0, 0, 0, 0, 1, 0, 0, 0, 5, 0, 0, 0, 0, 5, 0, 0, 0, 10.0, 8.5, 1, 4
2, 0, 0, 1, 0, 0, 0, 0, 0, 0, 0, 4, 0, 2, 0, 1, 1, 0, 0, 4, 5.0, 6.84615384615, 3, 4
0, 1, 0, 0, 0, 0, 2, 0, 0, 0, 0, 5, 2, 0, 0, 0, 1, 0, 0, 1, 9.0, 6.92857142857, 2, 4
1, 0, 0, 0, 1, 0, 0, 0, 0, 0, 0, 2, 0, 1, 0, 0, 1, 0, 0, 0, 13.0, 6.75, 1, 4
3, 0, 0, 1, 0, 1, 0, 0, 0, 0, 3, 6, 0, 5, 1, 0, 0, 0, 0, -4, 6.5, 8.0, 4, 4
0, 0, 0, 0, 0, 0, 0, 1, 0, 0, 1, 5, 0, 0, 0, 0, 0, 0, 0, -3, 6.0, 7.0, 2, 4
0, 0, 0, 0, 0, 0, 0, 0, 0, 0, 0, 1, 1, 0, 0, 0, 0, 0, 0, 0, 5.0, 7.2, 1, 4
1, 0, 1, 0, 0, 0, 0, 0, 0, 0, 0, 4, 0, 0, 1, 0, 0, 0, 0, 0, 10.5, 8.3, 2, 4
0, 0, 0, 0, 1, 0, 0, 0, 0, 0, 0, 2, 1, 2, 0, 0, 1, 0, 0, 3, 12.0, 8.27272727273, 1, 4
0, 1, 2, 1, 1, 0, 0, 0, 0, 0, 0, 5, 1, 1, 1, 2, 0, 0, 0, 8, 9.0, 7.45833333333, 3, 4
1, 1, 0, 1, 0, 0, 1, 0, 0, 0, 0, 4, 0, 0, 0, 0, 0, 0, 0, 0, 12.0, 7.81818181818, 1, 4
0, 0, 0, 0, 0, 0, 1, 0, 0, 0, 1, 10, 0, 3, 0, 0, 0, 0, 0, 3, 6.75, 7.60869565217, 4, 4
0, 0, 1, 1, 0, 0, 0, 0, 0, 0, 0, 3, 0, 1, 0, 1, 0, 0, 0, 2, 3.66666666667, 8.33333333333, 3, 4
0, 0, 0, 0, 0, 0, 0, 1, 0, 0, 1, 2, 0, 1, 0, 0, 0, 0, 0, 1, 4.0, 8.66666666667, 2, 4
0, 0, 1, 0, 0, 0, 0, 1, 0, 0, 1, 2, 0, 0, 0, 1, 0, 0, 0, 3, 2.5, 7.75, 2, 4
1, 0, 0, 0, 0, 0, 1, 2, 1, 0, 0, 6, 0, 0, 0, 0, 6, 0, 0, -1, 12.0, 6.77777777778, 2, 4
4, 0, 1, 1, 3, 0, 0, 0, 0, 0, 0, 6, 0, 3, 0, 1, 0, 0, 0, 8, 25.0, 7.24, 1, 4
1, 0, 0, 0, 0, 0, 0, 0, 0, 0, 1, 4, 2, 0, 0, 0, 2, 0, 0, -1, 4.66666666667, 8.54545454545, 3, 4
0, 0, 1, 1, 0, 0, 0, 0, 0, 0, 0, 3, 2, 0, 0, 0, 0, 0, 0, 5, 9.0, 8.75, 1, 4
0, 0, 0, 0, 0, 1, 1, 0, 0, 0, 1, 4, 1, 0, 0, 1, 0, 0, 0, 4, 4.75, 7.06666666667, 4, 4
0, 0, 0, 1, 0, 0, 0, 0, 0, 0, 0, 2, 0, 1, 0, 1, 0, 0, 0, 4, 6.0, 7.0, 1, 4
2, 0, 0, 1, 0, 0, 0, 0, 0, 0, 1, 6, 0, 1, 0, 0, 0, 0, 0, 0, 12.5, 7.54166666667, 2, 4
0, 0, 0, 0, 1, 0, 0, 0, 0, 0, 0, 7, 0, 2, 0, 0, 0, 0, 0, 2, 6.66666666667, 8.3125, 3, 4
0, 0, 0, 0, 0, 0, 0, 0, 0, 0, 0, 1, 1, 0, 0, 0, 0, 0, 0, 0, 7.0, 8.71428571429, 1, 4
0, 1, 1, 0, 1, 0, 0, 0, 0, 0, 0, 6, 0, 3, 0, 0, 0, 0, 0, 2, 10.0, 7.76470588235, 2, 4
3, 0, 2, 0, 0, 0, 1, 0, 0, 0, 0, 3, 0, 3, 1, 0, 0, 0, 0, 2, 14.5, 7.66666666667, 2, 4
0, 0, 0, 0, 0, 0, 0, 1, 0, 0, 0, 5, 6, 0, 0, 0, 0, 0, 0, 5, 22.0, 8.0625, 1, 4
0, 1, 0, 0, 0, 0, 0, 0, 0, 0, 1, 4, 0, 0, 1, 1, 0, 0, 0, 0, 4.5, 8.71428571429, 2, 4
1, 1, 1, 0, 1, 1, 0, 0, 0, 0, 0, 3, 0, 2, 0, 1, 1, 0, 0, 0, 6.0, 6.73333333333, 3, 4
2, 0, 0, 0, 0, 1, 0, 0, 0, 0, 0, 3, 0, 1, 0, 0, 0, 0, 0, 0, 12.0, 7.0, 1, 4
1, 0, 0, 0, 1, 0, 0, 1, 0, 0, 0, 5, 0, 0, 0, 0, 3, 0, 0, 0, 7.5, 8.41666666667, 2, 4
0, 0, 2, 0, 0, 0, 0, 0, 0, 0, 0, 4, 1, 0, 0, 0, 0, 0, 0, 1, 8.33333333333, 7.45, 3, 4
1, 2, 0, 1, 0, 0, 0, 0, 0, 0, 0, 4, 0, 1, 0, 0, 0, 0, 0, 2, 8.0, 8.52380952381, 3, 4
1, 0, 0, 1, 0, 0, 0, 0, 0, 2, 1, 9, 0, 0, 0, 0, 0, 0, 0, 8, 8.66666666667, 7.60869565217, 3, 4
0, 0, 0, 0, 0, 0, 0, 0, 0, 0, 0, 3, 0, 0, 1, 0, 0, 0, 0, 2, 6.0, 7.6, 1, 4
0, 0, 1, 0, 0, 0, 1, 0, 1, 2, 0, 10, 0, 0, 0, 0, 0, 0, 0, 2, 23.0, 8.33333333333, 1, 4
2, 0, 1, 2, 0, 0, 2, 0, 0, 0, 0, 3, 0, 1, 0, 0, 1, 0, 0, 4, 9.5, 7.26666666667, 2, 4
2, 2, 0, 0, 0, 0, 1, 0, 0, 0, 0, 3, 0, 0, 0, 0, 0, 0, 0, 5, 10.0, 8.33333333333, 1, 4
2, 0, 0, 1, 0, 0, 1, 0, 0, 0, 0, 6, 0, 2, 0, 1, 0, 0, 0, 3, 22.0, 7.33333333333, 1, 4
0, 0, 0, 0, 0, 0, 1, 0, 0, 0, 0, 4, 0, 0, 0, 0, 1, 0, 0, 5, 5.5, 8.375, 2, 4
2, 0, 0, 0, 1, 0, 0, 0, 0, 0, 0, 2, 0, 2, 0, 0, 0, 0, 0, 3, 17.0, 7.35294117647, 1, 4
0, 0, 0, 0, 0, 0, 1, 0, 0, 0, 0, 3, 0, 0, 0, 0, 0, 0, 0, 6, 7.0, 8.16666666667, 1, 4
0, 1, 0, 0, 0, 0, 0, 0, 0, 0, 0, 1, 1, 0, 0, 0, 0, 0, 0, 2, 4.0, 9.0, 1, 4
1, 1, 0, 0, 0, 0, 0, 0, 0, 0, 0, 4, 0, 0, 0, 0, 0, 0, 0, 3, 6.0, 8.33333333333, 1, 4
0, 0, 0, 0, 0, 0, 0, 1, 0, 0, 1, 6, 1, 0, 0, 0, 1, 0, 0, 10, 3.66666666667, 9.25, 3, 4
1, 0, 1, 0, 0, 0, 1, 0, 0, 0, 0, 4, 1, 2, 0, 0, 0, 0, 0, 3, 12.0, 7.2380952381, 2, 4
3, 0, 0, 1, 1, 1, 1, 0, 0, 0, 0, 2, 1, 2, 0, 0, 0, 0, 0, 4, 8.66666666667, 7.95454545455, 3, 4
0, 0, 0, 0, 1, 0, 0, 3, 1, 0, 1, 2, 0, 0, 0, 1, 1, 0, 0, 3, 8.0, 10.2, 1, 4
0, 1, 0, 0, 0, 0, 0, 0, 0, 0, 0, 4, 0, 0, 0, 0, 0, 0, 0, 5, 9.5, 8.0, 2, 4
0, 0, 0, 0, 0, 0, 0, 0, 0, 0, 0, 1, 0, 0, 0, 0, 0, 0, 0, 0, 1.0, 16.0, 1, 4
0, 0, 1, 2, 0, 0, 0, 0, 0, 0, 0, 7, 0, 1, 0, 0, 0, 0, 0, 0, 17.0, 7.47058823529, 1, 4
1, 0, 1, 2, 2, 0, 1, 0, 2, 0, 0, 5, 0, 3, 0, 0, 0, 0, 0, 5, 7.66666666667, 7.9, 3, 4
1, 1, 0, 0, 1, 0, 0, 0, 0, 0, 0, 8, 0, 2, 2, 2, 0, 1, 0, 4, 7.0, 7.61111111111, 3, 4
0, 0, 0, 0, 3, 0, 0, 2, 0, 0, 3, 4, 0, 0, 0, 0, 0, 0, 0, -2, 6.33333333333, 7.5625, 3, 4
0, 3, 0, 0, 0, 0, 0, 1, 1, 0, 0, 5, 0, 1, 0, 0, 0, 0, 0, 5, 18.0, 7.8125, 1, 4
0, 0, 0, 0, 0, 0, 0, 0, 0, 0, 0, 1, 0, 0, 0, 0, 0, 0, 0, 3, 4.0, 10.6666666667, 1, 4
0, 0, 1, 2, 0, 0, 0, 0, 0, 0, 1, 9, 1, 1, 0, 0, 0, 0, 0, 2, 5.2, 8.47619047619, 5, 4
0, 0, 0, 0, 0, 0, 0, 1, 0, 0, 1, 3, 0, 0, 0, 0, 0, 0, 0, 3, 2.5, 8.0, 2, 4
0, 0, 0, 0, 0, 0, 0, 0, 0, 0, 0, 1, 0, 0, 0, 0, 0, 0, 0, 0, 3.0, 6.5, 1, 4
1, 1, 0, 0, 0, 0, 1, 0, 0, 0, 0, 2, 0, 1, 0, 0, 0, 0, 0, 2, 8.5, 6.72727272727, 2, 4
0, 0, 0, 0, 0, 0, 0, 0, 0, 0, 0, 2, 1, 0, 0, 0, 0, 0, 0, 3, 7.0, 7.33333333333, 1, 4
1, 0, 0, 1, 0, 0, 0, 1, 1, 0, 0, 7, 1, 1, 0, 0, 0, 0, 0, 4, 9.5, 8.64285714286, 2, 4
0, 0, 2, 1, 2, 0, 1, 0, 0, 0, 0, 6, 0, 0, 0, 1, 0, 0, 0, 4, 5.25, 7.64705882353, 4, 4
0, 0, 0, 0, 0, 0, 0, 0, 1, 0, 0, 3, 0, 0, 0, 0, 0, 0, 0, 3, 6.0, 8.33333333333, 1, 4
2, 1, 1, 1, 1, 0, 0, 0, 0, 0, 0, 5, 0, 4, 0, 0, 0, 0, 0, -2, 12.5, 7.68181818182, 2, 4
0, 0, 0, 1, 0, 0, 0, 0, 0, 0, 0, 7, 0, 2, 0, 1, 0, 0, 0, 8, 10.0, 9.44444444444, 2, 4
0, 0, 0, 0, 0, 0, 0, 0, 0, 0, 0, 1, 0, 0, 0, 0, 0, 0, 0, 1, 3.0, 11.5, 1, 4
0, 0, 0, 0, 0, 0, 1, 0, 0, 0, 0, 1, 1, 1, 0, 0, 0, 0, 0, 5, 8.0, 7.83333333333, 1, 4
2, 0, 1, 0, 0, 0, 0, 0, 0, 0, 0, 5, 0, 2, 0, 0, 0, 0, 0, 1, 22.0, 7.0, 1, 4
1, 0, 2, 0, 1, 0, 2, 0, 0, 0, 0, 2, 0, 3, 0, 0, 0, 0, 0, 2, 25.0, 7.55, 1, 4
0, 1, 0, 0, 1, 0, 0, 0, 0, 0, 1, 7, 0, 1, 0, 0, 1, 0, 0, 4, 19.0, 7.3125, 1, 4
1, 0, 0, 0, 1, 0, 0, 0, 0, 0, 0, 3, 1, 2, 0, 0, 0, 0, 0, -1, 7.0, 7.69230769231, 2, 4
0, 0, 0, 0, 0, 0, 0, 0, 0, 0, 0, 3, 0, 0, 0, 0, 0, 0, 0, 0, 4.0, 10.3333333333, 1, 4
0, 1, 0, 0, 0, 0, 1, 0, 0, 0, 0, 8, 0, 0, 0, 0, 0, 0, 0, 3, 16.0, 8.86666666667, 1, 4
0, 1, 0, 0, 0, 0, 0, 0, 0, 0, 0, 1, 0, 0, 0, 0, 0, 0, 0, 7, 4.0, 8.83333333333, 2, 4
0, 0, 0, 0, 0, 0, 0, 0, 0, 0, 0, 3, 0, 0, 0, 0, 0, 0, 0, 3, 4.0, 10.0, 1, 4
1, 0, 1, 1, 0, 0, 0, 4, 1, 0, 5, 9, 0, 2, 0, 2, 1, 0, 0, 6, 4.0, 7.04545454545, 7, 4
0, 0, 0, 0, 0, 0, 0, 0, 0, 0, 0, 2, 0, 0, 0, 0, 0, 0, 0, 0, 3.0, 8.0, 1, 4
0, 0, 0, 1, 0, 0, 2, 0, 0, 0, 0, 5, 0, 0, 0, 0, 1, 0, 0, 2, 5.5, 7.75, 2, 4
1, 0, 0, 0, 0, 0, 0, 0, 0, 0, 0, 5, 0, 0, 0, 0, 0, 0, 0, 0, 4.5, 8.42857142857, 2, 4
3, 1, 0, 0, 0, 0, 1, 0, 0, 0, 0, 2, 0, 1, 0, 0, 0, 0, 0, 0, 14.0, 6.38461538462, 1, 4
0, 0, 0, 0, 0, 0, 0, 0, 0, 0, 0, 1, 1, 0, 0, 0, 1, 0, 0, 0, 3.0, 7.33333333333, 1, 4
2, 0, 0, 0, 2, 0, 1, 0, 0, 0, 0, 8, 0, 2, 0, 0, 0, 0, 0, 1, 22.0, 6.52380952381, 1, 4
0, 2, 0, 0, 2, 0, 0, 0, 0, 0, 0, 3, 0, 2, 2, 0, 0, 0, 0, 2, 9.5, 7.05882352941, 2, 4
1, 0, 0, 0, 0, 1, 0, 0, 0, 1, 0, 10, 0, 1, 0, 0, 1, 0, 0, 0, 10.3333333333, 6.71428571429, 3, 4
2, 0, 1, 0, 0, 0, 0, 1, 1, 0, 0, 1, 1, 1, 0, 0, 0, 0, 0, 2, 15.0, 8.21428571429, 1, 4
0, 2, 0, 0, 2, 0, 0, 0, 0, 0, 0, 3, 0, 2, 2, 0, 0, 0, 0, 2, 9.5, 7.05882352941, 2, 4
0, 0, 0, 0, 0, 0, 0, 0, 0, 0, 0, 1, 3, 1, 0, 0, 0, 0, 0, 2, 5.0, 8.625, 2, 4
2, 0, 0, 0, 0, 0, 1, 0, 0, 0, 0, 2, 0, 0, 0, 0, 1, 0, 0, 0, 9.0, 9.83333333333, 1, 4
2, 0, 0, 1, 1, 0, 1, 0, 0, 0, 0, 3, 0, 0, 0, 0, 0, 0, 0, 0, 10.0, 6.5, 1, 4
0, 2, 0, 0, 2, 0, 0, 0, 0, 0, 0, 3, 0, 2, 2, 0, 0, 0, 0, 2, 9.5, 7.05882352941, 2, 4
1, 2, 0, 0, 0, 1, 1, 0, 0, 0, 0, 4, 0, 1, 0, 0, 0, 0, 0, 2, 15.0, 7.0, 1, 4
0, 2, 0, 0, 2, 0, 0, 0, 0, 0, 0, 3, 0, 2, 2, 0, 0, 0, 0, 2, 9.5, 7.05882352941, 2, 4
3, 0, 0, 0, 1, 2, 0, 2, 0, 0, 2, 3, 0, 3, 0, 0, 0, 0, 0, 0, 7.66666666667, 7.52380952381, 3, 4
0, 0, 0, 0, 0, 0, 0, 0, 0, 0, 0, 3, 3, 0, 0, 0, 0, 1, 0, 3, 6.0, 8.5, 1, 4
0, 0, 0, 1, 0, 0, 1, 0, 0, 0, 0, 6, 4, 2, 0, 0, 0, 0, 0, 2, 22.0, 7.0, 1, 4
1, 0, 1, 1, 2, 0, 0, 0, 0, 0, 0, 4, 0, 3, 0, 0, 0, 0, 0, 0, 7.0, 7.58823529412, 3, 4
0, 1, 0, 0, 0, 0, 0, 0, 0, 0, 0, 3, 0, 1, 0, 0, 0, 0, 0, 0, 9.0, 8.375, 1, 4
0, 0, 0, 0, 0, 0, 0, 0, 1, 0, 0, 10, 0, 0, 0, 0, 2, 0, 0, 3, 11.0, 13.5454545455, 1, 4
0, 2, 0, 0, 2, 0, 0, 0, 0, 0, 0, 3, 0, 2, 2, 0, 0, 0, 0, 2, 9.5, 7.05882352941, 2, 4
1, 0, 0, 0, 0, 0, 0, 0, 0, 0, 0, 2, 0, 0, 0, 0, 0, 0, 0, -2, 7.0, 8.0, 1, 4
1, 0, 0, 0, 0, 0, 0, 0, 0, 0, 0, 4, 2, 0, 0, 0, 0, 0, 0, 2, 13.0, 7.41666666667, 1, 4
2, 1, 0, 0, 0, 1, 1, 0, 0, 0, 0, 2, 0, 1, 0, 0, 0, 0, 0, 0, 12.0, 7.33333333333, 1, 4
0, 2, 0, 0, 2, 0, 0, 0, 0, 0, 0, 3, 0, 2, 2, 0, 0, 0, 0, 2, 9.5, 7.05882352941, 2, 4
1, 0, 0, 2, 0, 0, 0, 0, 0, 0, 0, 6, 0, 3, 1, 0, 5, 0, 0, -1, 12.5, 7.79166666667, 2, 4
1, 0, 0, 0, 0, 0, 1, 0, 0, 0, 0, 6, 0, 1, 0, 0, 0, 0, 0, 7, 12.0, 6.57142857143, 2, 4
0, 2, 0, 0, 2, 0, 0, 0, 0, 0, 0, 3, 0, 2, 2, 0, 0, 0, 0, 2, 9.5, 7.05882352941, 2, 4
1, 0, 0, 1, 0, 0, 0, 0, 0, 0, 0, 5, 2, 0, 0, 0, 0, 0, 0, 6, 20.0, 7.8125, 1, 4
0, 2, 0, 0, 2, 0, 0, 0, 0, 0, 0, 3, 0, 2, 2, 0, 0, 0, 0, 2, 9.5, 7.05882352941, 2, 4
1, 1, 0, 0, 0, 0, 0, 0, 0, 0, 0, 4, 0, 0, 0, 0, 0, 0, 0, 8, 11.0, 7.90909090909, 1, 4
0, 0, 0, 0, 0, 0, 0, 0, 0, 0, 0, 1, 0, 0, 0, 0, 0, 0, 0, 3, 3.0, 12.0, 1, 4
0, 0, 0, 0, 0, 0, 0, 2, 0, 0, 2, 2, 0, 1, 0, 0, 0, 0, 0, -7, 5.0, 7.84615384615, 3, 4
0, 2, 0, 0, 2, 0, 0, 0, 0, 0, 0, 3, 0, 2, 2, 0, 0, 0, 0, 2, 9.5, 7.05882352941, 2, 4
2, 0, 1, 1, 2, 0, 0, 0, 0, 0, 0, 5, 0, 1, 0, 0, 0, 0, 0, 3, 8.0, 7.33333333333, 2, 4
2, 0, 0, 0, 1, 0, 0, 0, 0, 0, 0, 2, 0, 0, 0, 0, 0, 0, 0, 1, 9.0, 7.375, 1, 4
0, 0, 0, 0, 0, 0, 0, 0, 0, 0, 0, 4, 1, 0, 0, 0, 0, 0, 0, 0, 7.0, 7.71428571429, 1, 4
2, 0, 3, 0, 0, 0, 0, 1, 0, 0, 1, 4, 0, 3, 1, 0, 0, 0, 0, 3, 9.0, 8.04545454545, 3, 4
0, 0, 0, 0, 0, 0, 0, 0, 0, 0, 2, 9, 1, 0, 0, 0, 0, 0, 0, 3, 3.25, 9.3, 4, 4
0, 2, 0, 0, 2, 0, 0, 0, 0, 0, 0, 3, 0, 2, 2, 0, 0, 0, 0, 2, 9.5, 7.05882352941, 2, 4
1, 1, 0, 0, 0, 0, 0, 0, 0, 0, 0, 5, 0, 0, 0, 0, 1, 0, 0, 3, 6.33333333333, 8.0, 3, 4
3, 1, 2, 0, 0, 1, 0, 0, 0, 0, 0, 2, 0, 1, 1, 1, 1, 0, 0, 2, 10.5, 7.05, 2, 4
0, 2, 0, 0, 2, 0, 0, 0, 0, 0, 0, 3, 0, 2, 2, 0, 0, 0, 0, 2, 9.5, 7.05882352941, 2, 4
1, 1, 0, 0, 0, 0, 0, 0, 0, 0, 0, 2, 0, 0, 0, 0, 0, 0, 0, 1, 9.0, 7.57142857143, 1, 4
1, 1, 0, 0, 0, 0, 0, 0, 0, 0, 0, 7, 0, 1, 0, 0, 0, 0, 0, 5, 10.0, 8.44444444444, 2, 4
0, 2, 0, 0, 2, 0, 0, 0, 0, 0, 0, 3, 0, 2, 2, 0, 0, 0, 0, 2, 9.5, 7.05882352941, 2, 4
0, 0, 0, 0, 0, 0, 1, 0, 0, 0, 0, 2, 2, 0, 0, 0, 0, 0, 0, 3, 5.5, 8.71428571429, 2, 4
0, 0, 0, 0, 0, 0, 0, 1, 0, 0, 1, 2, 0, 0, 0, 0, 0, 0, 0, 0, 10.0, 8.0, 1, 4
0, 1, 0, 0, 0, 0, 0, 0, 0, 0, 0, 3, 0, 2, 0, 0, 0, 0, 0, 1, 15.0, 7.73333333333, 1, 4
0, 2, 0, 0, 2, 0, 0, 0, 0, 0, 0, 3, 0, 2, 2, 0, 0, 0, 0, 2, 9.5, 7.05882352941, 2, 4
1, 0, 0, 0, 0, 0, 1, 0, 0, 0, 0, 4, 1, 2, 0, 0, 1, 0, 0, 0, 8.0, 7.71428571429, 2, 4
1, 0, 0, 0, 0, 0, 0, 0, 0, 0, 0, 5, 0, 0, 0, 0, 0, 0, 0, 2, 18.0, 8.23529411765, 1, 4
0, 0, 0, 0, 0, 0, 0, 0, 0, 0, 0, 4, 0, 0, 0, 0, 0, 1, 0, 0, 4.0, 8.5, 1, 4
0, 1, 1, 1, 0, 0, 0, 0, 0, 0, 0, 5, 0, 1, 0, 0, 0, 0, 0, 7, 9.5, 7.88888888889, 2, 4
1, 0, 0, 0, 0, 0, 0, 0, 0, 0, 0, 2, 1, 0, 0, 0, 0, 0, 0, 0, 4.0, 11.0, 1, 4
0, 0, 0, 0, 0, 0, 0, 0, 0, 0, 0, 7, 1, 0, 0, 0, 0, 0, 0, 0, 8.0, 8.5, 1, 4
1, 1, 1, 0, 0, 0, 0, 0, 0, 0, 0, 6, 0, 3, 0, 0, 0, 0, 0, 3, 13.0, 7.18181818182, 2, 4
0, 2, 0, 0, 0, 0, 0, 0, 0, 0, 0, 5, 0, 1, 1, 0, 0, 0, 0, 0, 17.0, 7.0625, 1, 4
0, 0, 0, 1, 0, 0, 1, 0, 0, 0, 0, 1, 1, 3, 1, 0, 0, 0, 0, 7, 9.5, 8.125, 2, 4
0, 0, 0, 0, 0, 0, 0, 0, 0, 0, 0, 4, 0, 1, 0, 0, 0, 0, 0, 2, 10.0, 8.22222222222, 1, 4
0, 0, 0, 0, 0, 0, 0, 0, 0, 0, 0, 3, 0, 0, 0, 0, 0, 0, 0, 0, 3.0, 10.6666666667, 1, 4
2, 0, 1, 0, 0, 0, 1, 0, 0, 0, 0, 4, 0, 3, 0, 0, 1, 0, 0, -1, 7.0, 7.8125, 3, 4
